﻿ 2017-07-31 09:34:02,179 [P1316/D2/T1] INFO  Umbraco.Core.CoreBootManager - Umbraco 7.6.4 application starting on WIN7-64BIT
 2017-07-31 09:34:02,204 [P1316/D2/T1] INFO  Umbraco.Core.PluginManager - Determining hash of code files on disk
 2017-07-31 09:34:02,215 [P1316/D2/T1] INFO  Umbraco.Core.PluginManager - Hash determined (took 10ms)
 2017-07-31 09:34:02,298 [P1316/D2/T1] INFO  Umbraco.Core.MainDom - Acquiring MainDom...
 2017-07-31 09:34:02,300 [P1316/D2/T1] INFO  Umbraco.Core.MainDom - Acquired MainDom.
 2017-07-31 09:34:02,303 [P1316/D2/T1] INFO  Umbraco.Core.PluginManager - Resolving umbraco.interfaces.IDiscoverable
 2017-07-31 09:34:02,727 [P1316/D2/T1] INFO  Umbraco.Core.PluginManager - Resolved umbraco.interfaces.IDiscoverable (took 423ms)
 2017-07-31 09:34:02,727 [P1316/D2/T1] INFO  Umbraco.Core.PluginManager - Resolving umbraco.interfaces.IApplicationStartupHandler
 2017-07-31 09:34:02,730 [P1316/D2/T1] INFO  Umbraco.Core.PluginManager - Resolved umbraco.interfaces.IApplicationStartupHandler (took 2ms)
 2017-07-31 09:34:02,747 [P1316/D2/T1] INFO  Umbraco.Core.PluginManager - Resolving umbraco.interfaces.IDiscoverable
 2017-07-31 09:34:02,749 [P1316/D2/T1] INFO  Umbraco.Core.PluginManager - Resolved umbraco.interfaces.IDiscoverable (took 1ms)
 2017-07-31 09:34:02,749 [P1316/D2/T1] INFO  Umbraco.Core.PluginManager - Resolving Umbraco.Core.PropertyEditors.IPropertyEditorValueConverter
 2017-07-31 09:34:02,751 [P1316/D2/T1] INFO  Umbraco.Core.PluginManager - Resolved Umbraco.Core.PropertyEditors.IPropertyEditorValueConverter (took 2ms)
 2017-07-31 09:34:02,752 [P1316/D2/T1] INFO  Umbraco.Core.PluginManager - Resolving umbraco.interfaces.IDiscoverable
 2017-07-31 09:34:02,753 [P1316/D2/T1] INFO  Umbraco.Core.PluginManager - Resolved umbraco.interfaces.IDiscoverable (took 0ms)
 2017-07-31 09:34:02,753 [P1316/D2/T1] INFO  Umbraco.Core.PluginManager - Resolving Umbraco.Core.PropertyEditors.IPropertyValueConverter
 2017-07-31 09:34:02,756 [P1316/D2/T1] INFO  Umbraco.Core.PluginManager - Resolved Umbraco.Core.PropertyEditors.IPropertyValueConverter (took 3ms)
 2017-07-31 09:34:02,772 [P1316/D2/T1] INFO  Umbraco.Core.PluginManager - Resolving umbraco.interfaces.IDiscoverable
 2017-07-31 09:34:02,772 [P1316/D2/T1] INFO  Umbraco.Core.PluginManager - Resolved umbraco.interfaces.IDiscoverable (took 0ms)
 2017-07-31 09:34:02,773 [P1316/D2/T1] INFO  Umbraco.Core.PluginManager - Resolving Umbraco.Web.Mvc.SurfaceController
 2017-07-31 09:34:02,775 [P1316/D2/T1] INFO  Umbraco.Core.PluginManager - Resolved Umbraco.Web.Mvc.SurfaceController (took 2ms)
 2017-07-31 09:34:02,776 [P1316/D2/T1] INFO  Umbraco.Core.PluginManager - Resolving umbraco.interfaces.IDiscoverable
 2017-07-31 09:34:02,777 [P1316/D2/T1] INFO  Umbraco.Core.PluginManager - Resolved umbraco.interfaces.IDiscoverable (took 0ms)
 2017-07-31 09:34:02,777 [P1316/D2/T1] INFO  Umbraco.Core.PluginManager - Resolving Umbraco.Web.WebApi.UmbracoApiController
 2017-07-31 09:34:02,779 [P1316/D2/T1] INFO  Umbraco.Core.PluginManager - Resolved Umbraco.Web.WebApi.UmbracoApiController (took 2ms)
 2017-07-31 09:34:04,663 [P1316/D2/T1] INFO  Umbraco.Core.DatabaseContext - CanConnect = True
 2017-07-31 09:34:05,041 [P1316/D2/T1] INFO  Umbraco.Web.Cache.CacheRefresherEventHandler - Initializing Umbraco internal event handlers for cache refreshing
 2017-07-31 09:34:05,146 [P1316/D2/T1] INFO  umbraco.content - Load Xml from file...
 2017-07-31 09:34:05,151 [P1316/D2/T1] INFO  umbraco.content - Loaded Xml from file.
 2017-07-31 09:34:05,882 [P1316/D2/T1] INFO  Umbraco.Core.PluginManager - Resolving umbraco.interfaces.IDiscoverable
 2017-07-31 09:34:05,882 [P1316/D2/T1] INFO  Umbraco.Core.PluginManager - Resolved umbraco.interfaces.IDiscoverable (took 0ms)
 2017-07-31 09:34:05,882 [P1316/D2/T1] INFO  Umbraco.Core.PluginManager - Resolving Umbraco.Core.PropertyEditors.IParameterEditor
 2017-07-31 09:34:05,886 [P1316/D2/T1] INFO  Umbraco.Core.PluginManager - Resolved Umbraco.Core.PropertyEditors.IParameterEditor (took 3ms)
 2017-07-31 09:34:07,625 [P1316/D2/T1] INFO  Articulate.ArticulateRoutes - Mapping routes for 1 Articulate root nodes
 2017-07-31 09:34:07,696 [P1316/D2/T1] INFO  Umbraco.Web.Search.ExamineEvents - Initializing Examine and binding to business logic events
 2017-07-31 09:34:07,930 [P1316/D2/T1] INFO  Umbraco.Web.Search.ExamineEvents - Adding examine event handlers for index providers: 3
 2017-07-31 09:34:08,033 [P1316/D2/T1] INFO  Umbraco.Core.CoreBootManager - Umbraco application startup complete (took 5961ms)
 2017-07-31 09:34:08,266 [P1316/D2/T12] INFO  Umbraco.Core.Sync.ApplicationUrlHelper - ApplicationUrl: http://localhost:1838/umbraco (UmbracoModule request)
 2017-07-31 09:35:08,713 [P1316/D2/T12] INFO  umbraco.BusinessLogic.Log - Log scrubbed.  Removed all items older than 2017-07-30 09:35:08
 2017-07-31 09:35:08,931 [P1316/D2/T11] INFO  Umbraco.Core.PluginManager - Resolving umbraco.interfaces.IDiscoverable
 2017-07-31 09:35:08,931 [P1316/D2/T11] INFO  Umbraco.Core.PluginManager - Resolved umbraco.interfaces.IDiscoverable (took 0ms)
 2017-07-31 09:35:08,931 [P1316/D2/T11] INFO  Umbraco.Core.PluginManager - Resolving [Umbraco.Core.Persistence.Mappers.MapperForAttribute]Umbraco.Core.Persistence.Mappers.BaseMapper
 2017-07-31 09:35:08,947 [P1316/D2/T11] INFO  Umbraco.Core.PluginManager - Resolved [Umbraco.Core.Persistence.Mappers.MapperForAttribute]Umbraco.Core.Persistence.Mappers.BaseMapper (took 5ms)
 2017-07-31 09:40:29,495 [P6652/D2/T1] INFO  Umbraco.Core.CoreBootManager - Umbraco 7.6.4 application starting on WIN7-64BIT
 2017-07-31 09:40:29,520 [P6652/D2/T1] INFO  Umbraco.Core.PluginManager - Determining hash of code files on disk
 2017-07-31 09:40:29,530 [P6652/D2/T1] INFO  Umbraco.Core.PluginManager - Hash determined (took 10ms)
 2017-07-31 09:40:29,619 [P6652/D2/T1] INFO  Umbraco.Core.MainDom - Acquiring MainDom...
 2017-07-31 09:40:29,622 [P6652/D2/T1] INFO  Umbraco.Core.MainDom - Acquired MainDom.
 2017-07-31 09:40:29,624 [P6652/D2/T1] INFO  Umbraco.Core.PluginManager - Resolving umbraco.interfaces.IDiscoverable
 2017-07-31 09:40:30,059 [P6652/D2/T1] INFO  Umbraco.Core.PluginManager - Resolved umbraco.interfaces.IDiscoverable (took 434ms)
 2017-07-31 09:40:30,059 [P6652/D2/T1] INFO  Umbraco.Core.PluginManager - Resolving umbraco.interfaces.IApplicationStartupHandler
 2017-07-31 09:40:30,061 [P6652/D2/T1] INFO  Umbraco.Core.PluginManager - Resolved umbraco.interfaces.IApplicationStartupHandler (took 2ms)
 2017-07-31 09:40:30,080 [P6652/D2/T1] INFO  Umbraco.Core.PluginManager - Resolving umbraco.interfaces.IDiscoverable
 2017-07-31 09:40:30,081 [P6652/D2/T1] INFO  Umbraco.Core.PluginManager - Resolved umbraco.interfaces.IDiscoverable (took 0ms)
 2017-07-31 09:40:30,082 [P6652/D2/T1] INFO  Umbraco.Core.PluginManager - Resolving Umbraco.Core.PropertyEditors.IPropertyEditorValueConverter
 2017-07-31 09:40:30,083 [P6652/D2/T1] INFO  Umbraco.Core.PluginManager - Resolved Umbraco.Core.PropertyEditors.IPropertyEditorValueConverter (took 1ms)
 2017-07-31 09:40:30,084 [P6652/D2/T1] INFO  Umbraco.Core.PluginManager - Resolving umbraco.interfaces.IDiscoverable
 2017-07-31 09:40:30,085 [P6652/D2/T1] INFO  Umbraco.Core.PluginManager - Resolved umbraco.interfaces.IDiscoverable (took 0ms)
 2017-07-31 09:40:30,085 [P6652/D2/T1] INFO  Umbraco.Core.PluginManager - Resolving Umbraco.Core.PropertyEditors.IPropertyValueConverter
 2017-07-31 09:40:30,087 [P6652/D2/T1] INFO  Umbraco.Core.PluginManager - Resolved Umbraco.Core.PropertyEditors.IPropertyValueConverter (took 2ms)
 2017-07-31 09:40:30,103 [P6652/D2/T1] INFO  Umbraco.Core.PluginManager - Resolving umbraco.interfaces.IDiscoverable
 2017-07-31 09:40:30,103 [P6652/D2/T1] INFO  Umbraco.Core.PluginManager - Resolved umbraco.interfaces.IDiscoverable (took 0ms)
 2017-07-31 09:40:30,104 [P6652/D2/T1] INFO  Umbraco.Core.PluginManager - Resolving Umbraco.Web.Mvc.SurfaceController
 2017-07-31 09:40:30,106 [P6652/D2/T1] INFO  Umbraco.Core.PluginManager - Resolved Umbraco.Web.Mvc.SurfaceController (took 1ms)
 2017-07-31 09:40:30,106 [P6652/D2/T1] INFO  Umbraco.Core.PluginManager - Resolving umbraco.interfaces.IDiscoverable
 2017-07-31 09:40:30,107 [P6652/D2/T1] INFO  Umbraco.Core.PluginManager - Resolved umbraco.interfaces.IDiscoverable (took 0ms)
 2017-07-31 09:40:30,107 [P6652/D2/T1] INFO  Umbraco.Core.PluginManager - Resolving Umbraco.Web.WebApi.UmbracoApiController
 2017-07-31 09:40:30,109 [P6652/D2/T1] INFO  Umbraco.Core.PluginManager - Resolved Umbraco.Web.WebApi.UmbracoApiController (took 1ms)
 2017-07-31 09:40:31,440 [P6652/D2/T1] INFO  Umbraco.Core.DatabaseContext - CanConnect = True
 2017-07-31 09:40:31,663 [P6652/D2/T1] INFO  Umbraco.Web.Cache.CacheRefresherEventHandler - Initializing Umbraco internal event handlers for cache refreshing
 2017-07-31 09:40:31,744 [P6652/D2/T1] INFO  umbraco.content - Load Xml from file...
 2017-07-31 09:40:31,749 [P6652/D2/T1] INFO  umbraco.content - Loaded Xml from file.
 2017-07-31 09:40:32,351 [P6652/D2/T1] INFO  Umbraco.Core.PluginManager - Resolving umbraco.interfaces.IDiscoverable
 2017-07-31 09:40:32,351 [P6652/D2/T1] INFO  Umbraco.Core.PluginManager - Resolved umbraco.interfaces.IDiscoverable (took 0ms)
 2017-07-31 09:40:32,352 [P6652/D2/T1] INFO  Umbraco.Core.PluginManager - Resolving Umbraco.Core.PropertyEditors.IParameterEditor
 2017-07-31 09:40:32,356 [P6652/D2/T1] INFO  Umbraco.Core.PluginManager - Resolved Umbraco.Core.PropertyEditors.IParameterEditor (took 4ms)
 2017-07-31 09:40:34,049 [P6652/D2/T1] INFO  Articulate.ArticulateRoutes - Mapping routes for 1 Articulate root nodes
 2017-07-31 09:40:34,107 [P6652/D2/T1] INFO  Umbraco.Web.Search.ExamineEvents - Initializing Examine and binding to business logic events
 2017-07-31 09:40:34,197 [P6652/D2/T1] INFO  Umbraco.Web.Search.ExamineEvents - Adding examine event handlers for index providers: 3
 2017-07-31 09:40:34,227 [P6652/D2/T1] INFO  Umbraco.Core.CoreBootManager - Umbraco application startup complete (took 4801ms)
 2017-07-31 09:40:34,409 [P6652/D2/T11] INFO  Umbraco.Core.Sync.ApplicationUrlHelper - ApplicationUrl: http://localhost:1838/umbraco (UmbracoModule request)
 2017-07-31 09:40:44,319 [P6652/D2/T14] WARN  Umbraco.Web.UmbracoModule - Status code is 404 yet TrySkipIisCustomErrors is false - IIS will take over.
 2017-07-31 09:40:50,751 [P6652/D2/T14] WARN  Umbraco.Web.UmbracoModule - Status code is 404 yet TrySkipIisCustomErrors is false - IIS will take over.
 2017-07-31 09:41:12,687 [P6652/D2/T18] INFO  Umbraco.Core.PluginManager - Resolving umbraco.interfaces.IDiscoverable
 2017-07-31 09:41:12,687 [P6652/D2/T18] INFO  Umbraco.Core.PluginManager - Resolved umbraco.interfaces.IDiscoverable (took 0ms)
 2017-07-31 09:41:12,688 [P6652/D2/T18] INFO  Umbraco.Core.PluginManager - Resolving umbraco.interfaces.IAction
 2017-07-31 09:41:12,693 [P6652/D2/T18] INFO  Umbraco.Core.PluginManager - Resolved umbraco.interfaces.IAction (took 4ms)
 2017-07-31 09:41:15,254 [P6652/D2/T18] WARN  Umbraco.Web.UmbracoModule - Status code is 404 yet TrySkipIisCustomErrors is false - IIS will take over.
 2017-07-31 09:41:15,884 [P6652/D2/T16] INFO  Umbraco.Core.PluginManager - Resolving umbraco.interfaces.IDiscoverable
 2017-07-31 09:41:15,885 [P6652/D2/T16] INFO  Umbraco.Core.PluginManager - Resolved umbraco.interfaces.IDiscoverable (took 0ms)
 2017-07-31 09:41:15,885 [P6652/D2/T16] INFO  Umbraco.Core.PluginManager - Resolving [Umbraco.Core.Persistence.Mappers.MapperForAttribute]Umbraco.Core.Persistence.Mappers.BaseMapper
 2017-07-31 09:41:15,890 [P6652/D2/T16] INFO  Umbraco.Core.PluginManager - Resolved [Umbraco.Core.Persistence.Mappers.MapperForAttribute]Umbraco.Core.Persistence.Mappers.BaseMapper (took 4ms)
 2017-07-31 09:41:16,259 [P6652/D2/T16] INFO  Umbraco.Core.Security.BackOfficeSignInManager - Event Id: 0, state: Login attempt succeeded for username phil.traynor@gmail.com from IP address ::1
 2017-07-31 09:41:16,262 [P6652/D2/T16] INFO  Umbraco.Core.Security.BackOfficeSignInManager - Event Id: 0, state: User: phil.traynor@gmail.com logged in from IP address ::1
 2017-07-31 09:41:16,438 [P6652/D2/T18] INFO  Umbraco.Core.PluginManager - Resolving umbraco.interfaces.IDiscoverable
 2017-07-31 09:41:16,439 [P6652/D2/T18] INFO  Umbraco.Core.PluginManager - Resolved umbraco.interfaces.IDiscoverable (took 0ms)
 2017-07-31 09:41:16,439 [P6652/D2/T18] INFO  Umbraco.Core.PluginManager - Resolving [Umbraco.Web.Trees.TreeAttribute]Umbraco.Web.Trees.TreeController
 2017-07-31 09:41:16,442 [P6652/D2/T18] INFO  Umbraco.Core.PluginManager - Resolved [Umbraco.Web.Trees.TreeAttribute]Umbraco.Web.Trees.TreeController (took 2ms)
 2017-07-31 09:41:16,540 [P6652/D2/T7] INFO  Umbraco.Core.PluginManager - Resolving umbraco.interfaces.IDiscoverable
 2017-07-31 09:41:16,541 [P6652/D2/T7] INFO  Umbraco.Core.PluginManager - Resolved umbraco.interfaces.IDiscoverable (took 0ms)
 2017-07-31 09:41:16,541 [P6652/D2/T7] INFO  Umbraco.Core.PluginManager - Resolving [umbraco.businesslogic.ApplicationAttribute]umbraco.interfaces.IApplication
 2017-07-31 09:41:16,546 [P6652/D2/T7] INFO  Umbraco.Core.PluginManager - Resolved [umbraco.businesslogic.ApplicationAttribute]umbraco.interfaces.IApplication (took 4ms)
 2017-07-31 09:41:16,674 [P6652/D2/T14] INFO  Umbraco.Core.PluginManager - Resolving umbraco.interfaces.IDiscoverable
 2017-07-31 09:41:16,675 [P6652/D2/T14] INFO  Umbraco.Core.PluginManager - Resolved umbraco.interfaces.IDiscoverable (took 0ms)
 2017-07-31 09:41:16,676 [P6652/D2/T14] INFO  Umbraco.Core.PluginManager - Resolving umbraco.interfaces.ITree
 2017-07-31 09:41:16,680 [P6652/D2/T14] INFO  Umbraco.Core.PluginManager - Resolved umbraco.interfaces.ITree (took 3ms)
 2017-07-31 09:41:16,715 [P6652/D2/T14] INFO  Umbraco.Core.PluginManager - Resolving umbraco.interfaces.IDiscoverable
 2017-07-31 09:41:16,715 [P6652/D2/T14] INFO  Umbraco.Core.PluginManager - Resolved umbraco.interfaces.IDiscoverable (took 0ms)
 2017-07-31 09:41:16,716 [P6652/D2/T14] INFO  Umbraco.Core.PluginManager - Resolving [Umbraco.Web.Trees.TreeAttribute]Umbraco.Web.Trees.TreeController
 2017-07-31 09:41:16,716 [P6652/D2/T14] INFO  Umbraco.Core.PluginManager - Resolved [Umbraco.Web.Trees.TreeAttribute]Umbraco.Web.Trees.TreeController (took 0ms)
 2017-07-31 09:41:16,721 [P6652/D2/T14] INFO  Umbraco.Core.PluginManager - Resolving umbraco.interfaces.IDiscoverable
 2017-07-31 09:41:16,721 [P6652/D2/T14] INFO  Umbraco.Core.PluginManager - Resolved umbraco.interfaces.IDiscoverable (took 0ms)
 2017-07-31 09:41:16,722 [P6652/D2/T14] INFO  Umbraco.Core.PluginManager - Resolving [umbraco.businesslogic.TreeAttribute]umbraco.interfaces.ITree
 2017-07-31 09:41:16,725 [P6652/D2/T14] INFO  Umbraco.Core.PluginManager - Resolved [umbraco.businesslogic.TreeAttribute]umbraco.interfaces.ITree (took 3ms)
 2017-07-31 09:41:17,099 [P6652/D2/T16] INFO  Umbraco.Core.PluginManager - Resolving umbraco.interfaces.IDiscoverable
 2017-07-31 09:41:17,100 [P6652/D2/T16] INFO  Umbraco.Core.PluginManager - Resolved umbraco.interfaces.IDiscoverable (took 0ms)
 2017-07-31 09:41:17,100 [P6652/D2/T16] INFO  Umbraco.Core.PluginManager - Resolving Umbraco.Core.Deploy.IServiceConnector
 2017-07-31 09:41:17,102 [P6652/D2/T16] INFO  Umbraco.Core.PluginManager - Resolved Umbraco.Core.Deploy.IServiceConnector (took 1ms)
 2017-07-31 09:41:34,849 [P6652/D2/T15] INFO  umbraco.BusinessLogic.Log - Log scrubbed.  Removed all items older than 2017-07-30 09:41:34
 2017-07-31 09:41:44,557 [P6652/D2/T14] INFO  Umbraco.Core.PluginManager - Resolving umbraco.interfaces.IDiscoverable
 2017-07-31 09:41:44,558 [P6652/D2/T14] INFO  Umbraco.Core.PluginManager - Resolved umbraco.interfaces.IDiscoverable (took 0ms)
 2017-07-31 09:41:44,558 [P6652/D2/T14] INFO  Umbraco.Core.PluginManager - Resolving umbraco.interfaces.ICacheRefresher
 2017-07-31 09:41:44,564 [P6652/D2/T14] INFO  Umbraco.Core.PluginManager - Resolved umbraco.interfaces.ICacheRefresher (took 5ms)
 2017-07-31 09:41:44,727 [P6652/D2/T14] INFO  Articulate.ArticulateRoutes - Mapping routes for 1 Articulate root nodes
 2017-07-31 09:41:54,757 [P6652/D2/T21] WARN  Umbraco.Web.UmbracoModule - Status code is 404 yet TrySkipIisCustomErrors is false - IIS will take over.
 2017-07-31 09:41:54,883 [P6652/D2/T20] WARN  Umbraco.Web.UmbracoModule - Status code is 404 yet TrySkipIisCustomErrors is false - IIS will take over.
 2017-07-31 09:42:09,724 [P6652/D2/T37] INFO  Articulate.ArticulateRoutes - Mapping routes for 1 Articulate root nodes
 2017-07-31 09:42:39,345 [P6652/D2/T36] INFO  Articulate.ArticulateRoutes - Mapping routes for 1 Articulate root nodes
 2017-07-31 09:44:02,159 [P6652/D2/T60] INFO  Articulate.ArticulateRoutes - Mapping routes for 1 Articulate root nodes
 2017-07-31 09:44:48,535 [P6652/D2/T32] INFO  Articulate.ArticulateRoutes - Mapping routes for 1 Articulate root nodes
 2017-07-31 09:46:15,713 [P6652/D2/T23] INFO  Articulate.ArticulateRoutes - Mapping routes for 1 Articulate root nodes
 2017-07-31 09:56:03,887 [P6652/D2/T124] INFO  Articulate.ArticulateRoutes - Mapping routes for 1 Articulate root nodes
 2017-07-31 09:56:05,202 [P6652/D2/T121] WARN  Umbraco.Web.UmbracoModule - Status code is 404 yet TrySkipIisCustomErrors is false - IIS will take over.
 2017-07-31 09:56:48,653 [P6652/D2/T94] WARN  Umbraco.Web.UmbracoModule - Status code is 404 yet TrySkipIisCustomErrors is false - IIS will take over.
 2017-07-31 09:57:04,016 [P6652/D2/T94] INFO  Umbraco.Core.Publishing.PublishingStrategy - Content 'Blog' with Id '1064' has been published.
 2017-07-31 09:57:04,240 [P6652/D2/T94] INFO  Articulate.ArticulateRoutes - Mapping routes for 1 Articulate root nodes
 2017-07-31 09:57:08,246 [P6652/D2/T111] INFO  umbraco.content - Save Xml to file...
 2017-07-31 09:57:08,246 [P6652/D2/T111] INFO  umbraco.content - Saved Xml to file.
 2017-07-31 09:57:43,699 [P6652/D2/T37] INFO  Umbraco.Core.Publishing.PublishingStrategy - Content 'Test2' with Id '1070' has been unpublished.
 2017-07-31 09:57:43,767 [P6652/D2/T37] INFO  Umbraco.Core.Publishing.PublishingStrategy - Content 'gfgfgfg' with Id '1071' has been unpublished.
 2017-07-31 09:57:44,015 [P6652/D2/T37] INFO  Articulate.ArticulateRoutes - Mapping routes for 1 Articulate root nodes
 2017-07-31 09:57:48,014 [P6652/D2/T23] INFO  umbraco.content - Save Xml to file...
 2017-07-31 09:57:48,015 [P6652/D2/T23] INFO  umbraco.content - Saved Xml to file.
 2017-07-31 09:58:49,214 [P6652/D2/T85] INFO  Umbraco.Core.Publishing.PublishingStrategy - Content 'Blog' with Id '1064' has been published.
 2017-07-31 09:58:49,299 [P6652/D2/T85] INFO  Articulate.ArticulateRoutes - Mapping routes for 1 Articulate root nodes
 2017-07-31 09:58:53,285 [P6652/D2/T99] INFO  umbraco.content - Save Xml to file...
 2017-07-31 09:58:53,287 [P6652/D2/T99] INFO  umbraco.content - Saved Xml to file.
 2017-07-31 09:59:42,693 [P6652/D2/T64] INFO  Articulate.ArticulateRoutes - Mapping routes for 1 Articulate root nodes
 2017-07-31 10:02:44,426 [P6652/D2/T106] INFO  Umbraco.Core.Publishing.PublishingStrategy - Content 'Blog' with Id '1064' has been published.
 2017-07-31 10:02:44,560 [P6652/D2/T106] INFO  Articulate.ArticulateRoutes - Mapping routes for 1 Articulate root nodes
 2017-07-31 10:02:48,539 [P6652/D2/T106] INFO  umbraco.content - Save Xml to file...
 2017-07-31 10:02:48,541 [P6652/D2/T106] INFO  umbraco.content - Saved Xml to file.
 2017-07-31 10:07:52,964 [P10196/D2/T1] INFO  Umbraco.Core.CoreBootManager - Umbraco 7.6.4 application starting on WIN7-64BIT
 2017-07-31 10:07:52,987 [P10196/D2/T1] INFO  Umbraco.Core.PluginManager - Determining hash of code files on disk
 2017-07-31 10:07:52,999 [P10196/D2/T1] INFO  Umbraco.Core.PluginManager - Hash determined (took 11ms)
 2017-07-31 10:07:53,067 [P10196/D2/T1] INFO  Umbraco.Core.MainDom - Acquiring MainDom...
 2017-07-31 10:07:53,069 [P10196/D2/T1] INFO  Umbraco.Core.MainDom - Acquired MainDom.
 2017-07-31 10:07:53,073 [P10196/D2/T1] INFO  Umbraco.Core.PluginManager - Resolving umbraco.interfaces.IDiscoverable
 2017-07-31 10:07:53,236 [P10196/D2/T1] INFO  Umbraco.Core.PluginManager - Resolved umbraco.interfaces.IDiscoverable (took 161ms)
 2017-07-31 10:07:53,236 [P10196/D2/T1] INFO  Umbraco.Core.PluginManager - Resolving umbraco.interfaces.IApplicationStartupHandler
 2017-07-31 10:07:53,238 [P10196/D2/T1] INFO  Umbraco.Core.PluginManager - Resolved umbraco.interfaces.IApplicationStartupHandler (took 1ms)
 2017-07-31 10:07:53,284 [P10196/D2/T1] INFO  Umbraco.Core.PluginManager - Resolving umbraco.interfaces.IDiscoverable
 2017-07-31 10:07:53,285 [P10196/D2/T1] INFO  Umbraco.Core.PluginManager - Resolved umbraco.interfaces.IDiscoverable (took 0ms)
 2017-07-31 10:07:53,285 [P10196/D2/T1] INFO  Umbraco.Core.PluginManager - Resolving Umbraco.Core.PropertyEditors.IPropertyEditorValueConverter
 2017-07-31 10:07:53,286 [P10196/D2/T1] INFO  Umbraco.Core.PluginManager - Resolved Umbraco.Core.PropertyEditors.IPropertyEditorValueConverter (took 0ms)
 2017-07-31 10:07:53,287 [P10196/D2/T1] INFO  Umbraco.Core.PluginManager - Resolving umbraco.interfaces.IDiscoverable
 2017-07-31 10:07:53,287 [P10196/D2/T1] INFO  Umbraco.Core.PluginManager - Resolved umbraco.interfaces.IDiscoverable (took 0ms)
 2017-07-31 10:07:53,287 [P10196/D2/T1] INFO  Umbraco.Core.PluginManager - Resolving Umbraco.Core.PropertyEditors.IPropertyValueConverter
 2017-07-31 10:07:53,290 [P10196/D2/T1] INFO  Umbraco.Core.PluginManager - Resolved Umbraco.Core.PropertyEditors.IPropertyValueConverter (took 2ms)
 2017-07-31 10:07:53,307 [P10196/D2/T1] INFO  Umbraco.Core.PluginManager - Resolving umbraco.interfaces.IDiscoverable
 2017-07-31 10:07:53,307 [P10196/D2/T1] INFO  Umbraco.Core.PluginManager - Resolved umbraco.interfaces.IDiscoverable (took 0ms)
 2017-07-31 10:07:53,308 [P10196/D2/T1] INFO  Umbraco.Core.PluginManager - Resolving Umbraco.Web.Mvc.SurfaceController
 2017-07-31 10:07:53,308 [P10196/D2/T1] INFO  Umbraco.Core.PluginManager - Resolved Umbraco.Web.Mvc.SurfaceController (took 0ms)
 2017-07-31 10:07:53,309 [P10196/D2/T1] INFO  Umbraco.Core.PluginManager - Resolving umbraco.interfaces.IDiscoverable
 2017-07-31 10:07:53,309 [P10196/D2/T1] INFO  Umbraco.Core.PluginManager - Resolved umbraco.interfaces.IDiscoverable (took 0ms)
 2017-07-31 10:07:53,310 [P10196/D2/T1] INFO  Umbraco.Core.PluginManager - Resolving Umbraco.Web.WebApi.UmbracoApiController
 2017-07-31 10:07:53,311 [P10196/D2/T1] INFO  Umbraco.Core.PluginManager - Resolved Umbraco.Web.WebApi.UmbracoApiController (took 1ms)
 2017-07-31 10:07:54,680 [P10196/D2/T1] INFO  Umbraco.Core.DatabaseContext - CanConnect = True
 2017-07-31 10:07:54,923 [P10196/D2/T1] INFO  Umbraco.Web.Cache.CacheRefresherEventHandler - Initializing Umbraco internal event handlers for cache refreshing
 2017-07-31 10:07:55,058 [P10196/D2/T1] INFO  umbraco.content - Load Xml from file...
 2017-07-31 10:07:55,063 [P10196/D2/T1] INFO  umbraco.content - Loaded Xml from file.
 2017-07-31 10:07:55,576 [P10196/D2/T1] INFO  Umbraco.Core.PluginManager - Resolving umbraco.interfaces.IDiscoverable
 2017-07-31 10:07:55,577 [P10196/D2/T1] INFO  Umbraco.Core.PluginManager - Resolved umbraco.interfaces.IDiscoverable (took 0ms)
 2017-07-31 10:07:55,577 [P10196/D2/T1] INFO  Umbraco.Core.PluginManager - Resolving Umbraco.Core.PropertyEditors.IParameterEditor
 2017-07-31 10:07:55,578 [P10196/D2/T1] INFO  Umbraco.Core.PluginManager - Resolved Umbraco.Core.PropertyEditors.IParameterEditor (took 1ms)
 2017-07-31 10:07:56,016 [P10196/D2/T1] INFO  Articulate.ArticulateRoutes - Mapping routes for 1 Articulate root nodes
 2017-07-31 10:07:56,121 [P10196/D2/T1] INFO  Umbraco.Web.Search.ExamineEvents - Initializing Examine and binding to business logic events
 2017-07-31 10:07:56,233 [P10196/D2/T1] INFO  Umbraco.Web.Search.ExamineEvents - Adding examine event handlers for index providers: 3
 2017-07-31 10:07:56,267 [P10196/D2/T1] INFO  Umbraco.Core.CoreBootManager - Umbraco application startup complete (took 3390ms)
 2017-07-31 10:07:57,712 [P10196/D2/T12] INFO  Umbraco.Core.Sync.ApplicationUrlHelper - ApplicationUrl: http://localhost:1838/umbraco (UmbracoModule request)
 2017-07-31 10:08:30,980 [P9140/D2/T1] INFO  Umbraco.Core.CoreBootManager - Umbraco 7.6.4 application starting on WIN7-64BIT
 2017-07-31 10:08:31,002 [P9140/D2/T1] INFO  Umbraco.Core.PluginManager - Determining hash of code files on disk
 2017-07-31 10:08:31,014 [P9140/D2/T1] INFO  Umbraco.Core.PluginManager - Hash determined (took 11ms)
 2017-07-31 10:08:31,084 [P9140/D2/T1] INFO  Umbraco.Core.MainDom - Acquiring MainDom...
 2017-07-31 10:08:31,086 [P9140/D2/T1] INFO  Umbraco.Core.MainDom - Acquired MainDom.
 2017-07-31 10:08:31,089 [P9140/D2/T1] INFO  Umbraco.Core.PluginManager - Resolving umbraco.interfaces.IDiscoverable
 2017-07-31 10:08:31,250 [P9140/D2/T1] INFO  Umbraco.Core.PluginManager - Resolved umbraco.interfaces.IDiscoverable (took 161ms)
 2017-07-31 10:08:31,250 [P9140/D2/T1] INFO  Umbraco.Core.PluginManager - Resolving umbraco.interfaces.IApplicationStartupHandler
 2017-07-31 10:08:31,252 [P9140/D2/T1] INFO  Umbraco.Core.PluginManager - Resolved umbraco.interfaces.IApplicationStartupHandler (took 1ms)
 2017-07-31 10:08:31,291 [P9140/D2/T1] INFO  Umbraco.Core.PluginManager - Resolving umbraco.interfaces.IDiscoverable
 2017-07-31 10:08:31,292 [P9140/D2/T1] INFO  Umbraco.Core.PluginManager - Resolved umbraco.interfaces.IDiscoverable (took 1ms)
 2017-07-31 10:08:31,292 [P9140/D2/T1] INFO  Umbraco.Core.PluginManager - Resolving Umbraco.Core.PropertyEditors.IPropertyEditorValueConverter
 2017-07-31 10:08:31,293 [P9140/D2/T1] INFO  Umbraco.Core.PluginManager - Resolved Umbraco.Core.PropertyEditors.IPropertyEditorValueConverter (took 0ms)
 2017-07-31 10:08:31,294 [P9140/D2/T1] INFO  Umbraco.Core.PluginManager - Resolving umbraco.interfaces.IDiscoverable
 2017-07-31 10:08:31,294 [P9140/D2/T1] INFO  Umbraco.Core.PluginManager - Resolved umbraco.interfaces.IDiscoverable (took 0ms)
 2017-07-31 10:08:31,295 [P9140/D2/T1] INFO  Umbraco.Core.PluginManager - Resolving Umbraco.Core.PropertyEditors.IPropertyValueConverter
 2017-07-31 10:08:31,296 [P9140/D2/T1] INFO  Umbraco.Core.PluginManager - Resolved Umbraco.Core.PropertyEditors.IPropertyValueConverter (took 1ms)
 2017-07-31 10:08:31,311 [P9140/D2/T1] INFO  Umbraco.Core.PluginManager - Resolving umbraco.interfaces.IDiscoverable
 2017-07-31 10:08:31,312 [P9140/D2/T1] INFO  Umbraco.Core.PluginManager - Resolved umbraco.interfaces.IDiscoverable (took 0ms)
 2017-07-31 10:08:31,312 [P9140/D2/T1] INFO  Umbraco.Core.PluginManager - Resolving Umbraco.Web.Mvc.SurfaceController
 2017-07-31 10:08:31,313 [P9140/D2/T1] INFO  Umbraco.Core.PluginManager - Resolved Umbraco.Web.Mvc.SurfaceController (took 0ms)
 2017-07-31 10:08:31,314 [P9140/D2/T1] INFO  Umbraco.Core.PluginManager - Resolving umbraco.interfaces.IDiscoverable
 2017-07-31 10:08:31,314 [P9140/D2/T1] INFO  Umbraco.Core.PluginManager - Resolved umbraco.interfaces.IDiscoverable (took 0ms)
 2017-07-31 10:08:31,315 [P9140/D2/T1] INFO  Umbraco.Core.PluginManager - Resolving Umbraco.Web.WebApi.UmbracoApiController
 2017-07-31 10:08:31,316 [P9140/D2/T1] INFO  Umbraco.Core.PluginManager - Resolved Umbraco.Web.WebApi.UmbracoApiController (took 1ms)
 2017-07-31 10:08:32,637 [P9140/D2/T1] INFO  Umbraco.Core.DatabaseContext - CanConnect = True
 2017-07-31 10:08:32,881 [P9140/D2/T1] INFO  Umbraco.Web.Cache.CacheRefresherEventHandler - Initializing Umbraco internal event handlers for cache refreshing
 2017-07-31 10:08:33,017 [P9140/D2/T1] INFO  umbraco.content - Load Xml from file...
 2017-07-31 10:08:33,021 [P9140/D2/T1] INFO  umbraco.content - Loaded Xml from file.
 2017-07-31 10:08:33,527 [P9140/D2/T1] INFO  Umbraco.Core.PluginManager - Resolving umbraco.interfaces.IDiscoverable
 2017-07-31 10:08:33,527 [P9140/D2/T1] INFO  Umbraco.Core.PluginManager - Resolved umbraco.interfaces.IDiscoverable (took 0ms)
 2017-07-31 10:08:33,528 [P9140/D2/T1] INFO  Umbraco.Core.PluginManager - Resolving Umbraco.Core.PropertyEditors.IParameterEditor
 2017-07-31 10:08:33,529 [P9140/D2/T1] INFO  Umbraco.Core.PluginManager - Resolved Umbraco.Core.PropertyEditors.IParameterEditor (took 1ms)
 2017-07-31 10:08:33,966 [P9140/D2/T1] INFO  Articulate.ArticulateRoutes - Mapping routes for 1 Articulate root nodes
 2017-07-31 10:08:34,075 [P9140/D2/T1] INFO  Umbraco.Web.Search.ExamineEvents - Initializing Examine and binding to business logic events
 2017-07-31 10:08:34,201 [P9140/D2/T1] INFO  Umbraco.Web.Search.ExamineEvents - Adding examine event handlers for index providers: 3
 2017-07-31 10:08:34,235 [P9140/D2/T1] INFO  Umbraco.Core.CoreBootManager - Umbraco application startup complete (took 3346ms)
 2017-07-31 10:08:35,623 [P9140/D2/T11] INFO  Umbraco.Core.Sync.ApplicationUrlHelper - ApplicationUrl: http://localhost:1838/umbraco (UmbracoModule request)
 2017-07-31 10:08:41,781 [P9140/D2/T15] WARN  Umbraco.Web.UmbracoModule - Status code is 404 yet TrySkipIisCustomErrors is false - IIS will take over.
 2017-07-31 10:08:59,632 [P9140/D2/T14] INFO  Umbraco.Core.PluginManager - Resolving umbraco.interfaces.IDiscoverable
 2017-07-31 10:08:59,633 [P9140/D2/T14] INFO  Umbraco.Core.PluginManager - Resolved umbraco.interfaces.IDiscoverable (took 0ms)
 2017-07-31 10:08:59,633 [P9140/D2/T14] INFO  Umbraco.Core.PluginManager - Resolving umbraco.interfaces.IAction
 2017-07-31 10:08:59,635 [P9140/D2/T14] INFO  Umbraco.Core.PluginManager - Resolved umbraco.interfaces.IAction (took 1ms)
 2017-07-31 10:09:00,532 [P9140/D2/T11] INFO  Umbraco.Core.PluginManager - Resolving umbraco.interfaces.IDiscoverable
 2017-07-31 10:09:00,533 [P9140/D2/T11] INFO  Umbraco.Core.PluginManager - Resolved umbraco.interfaces.IDiscoverable (took 0ms)
 2017-07-31 10:09:00,533 [P9140/D2/T11] INFO  Umbraco.Core.PluginManager - Resolving [Umbraco.Web.Trees.TreeAttribute]Umbraco.Web.Trees.TreeController
 2017-07-31 10:09:00,534 [P9140/D2/T11] INFO  Umbraco.Core.PluginManager - Resolved [Umbraco.Web.Trees.TreeAttribute]Umbraco.Web.Trees.TreeController (took 0ms)
 2017-07-31 10:09:00,584 [P9140/D2/T12] INFO  Umbraco.Core.PluginManager - Resolving umbraco.interfaces.IDiscoverable
 2017-07-31 10:09:00,584 [P9140/D2/T12] INFO  Umbraco.Core.PluginManager - Resolved umbraco.interfaces.IDiscoverable (took 0ms)
 2017-07-31 10:09:00,585 [P9140/D2/T12] INFO  Umbraco.Core.PluginManager - Resolving umbraco.interfaces.ITree
 2017-07-31 10:09:00,586 [P9140/D2/T12] INFO  Umbraco.Core.PluginManager - Resolved umbraco.interfaces.ITree (took 1ms)
 2017-07-31 10:09:00,607 [P9140/D2/T12] INFO  Umbraco.Core.PluginManager - Resolving umbraco.interfaces.IDiscoverable
 2017-07-31 10:09:00,607 [P9140/D2/T12] INFO  Umbraco.Core.PluginManager - Resolved umbraco.interfaces.IDiscoverable (took 0ms)
 2017-07-31 10:09:00,608 [P9140/D2/T12] INFO  Umbraco.Core.PluginManager - Resolving [Umbraco.Web.Trees.TreeAttribute]Umbraco.Web.Trees.TreeController
 2017-07-31 10:09:00,609 [P9140/D2/T12] INFO  Umbraco.Core.PluginManager - Resolved [Umbraco.Web.Trees.TreeAttribute]Umbraco.Web.Trees.TreeController (took 0ms)
 2017-07-31 10:09:00,615 [P9140/D2/T12] INFO  Umbraco.Core.PluginManager - Resolving umbraco.interfaces.IDiscoverable
 2017-07-31 10:09:00,616 [P9140/D2/T12] INFO  Umbraco.Core.PluginManager - Resolved umbraco.interfaces.IDiscoverable (took 0ms)
 2017-07-31 10:09:00,617 [P9140/D2/T12] INFO  Umbraco.Core.PluginManager - Resolving [umbraco.businesslogic.TreeAttribute]umbraco.interfaces.ITree
 2017-07-31 10:09:00,618 [P9140/D2/T12] INFO  Umbraco.Core.PluginManager - Resolved [umbraco.businesslogic.TreeAttribute]umbraco.interfaces.ITree (took 1ms)
 2017-07-31 10:09:00,651 [P9140/D2/T12] INFO  Umbraco.Core.PluginManager - Resolving umbraco.interfaces.IDiscoverable
 2017-07-31 10:09:00,652 [P9140/D2/T12] INFO  Umbraco.Core.PluginManager - Resolved umbraco.interfaces.IDiscoverable (took 0ms)
 2017-07-31 10:09:00,652 [P9140/D2/T12] INFO  Umbraco.Core.PluginManager - Resolving [umbraco.businesslogic.ApplicationAttribute]umbraco.interfaces.IApplication
 2017-07-31 10:09:00,653 [P9140/D2/T12] INFO  Umbraco.Core.PluginManager - Resolved [umbraco.businesslogic.ApplicationAttribute]umbraco.interfaces.IApplication (took 0ms)
 2017-07-31 10:09:00,965 [P9140/D2/T11] INFO  Umbraco.Core.PluginManager - Resolving umbraco.interfaces.IDiscoverable
 2017-07-31 10:09:00,965 [P9140/D2/T11] INFO  Umbraco.Core.PluginManager - Resolved umbraco.interfaces.IDiscoverable (took 0ms)
 2017-07-31 10:09:00,965 [P9140/D2/T11] INFO  Umbraco.Core.PluginManager - Resolving [Umbraco.Core.Persistence.Mappers.MapperForAttribute]Umbraco.Core.Persistence.Mappers.BaseMapper
 2017-07-31 10:09:00,966 [P9140/D2/T11] INFO  Umbraco.Core.PluginManager - Resolved [Umbraco.Core.Persistence.Mappers.MapperForAttribute]Umbraco.Core.Persistence.Mappers.BaseMapper (took 0ms)
 2017-07-31 10:09:01,373 [P9140/D2/T11] INFO  Umbraco.Core.PluginManager - Resolving umbraco.interfaces.IDiscoverable
 2017-07-31 10:09:01,373 [P9140/D2/T11] INFO  Umbraco.Core.PluginManager - Resolved umbraco.interfaces.IDiscoverable (took 0ms)
 2017-07-31 10:09:01,373 [P9140/D2/T11] INFO  Umbraco.Core.PluginManager - Resolving Umbraco.Core.Deploy.IServiceConnector
 2017-07-31 10:09:01,374 [P9140/D2/T11] INFO  Umbraco.Core.PluginManager - Resolved Umbraco.Core.Deploy.IServiceConnector (took 0ms)
 2017-07-31 10:09:36,353 [P9140/D2/T7] INFO  umbraco.BusinessLogic.Log - Log scrubbed.  Removed all items older than 2017-07-30 10:09:36
 2017-07-31 14:08:49,423 [P9836/D2/T1] INFO  Umbraco.Core.CoreBootManager - Umbraco 7.6.4 application starting on WIN7-64BIT
 2017-07-31 14:08:49,446 [P9836/D2/T1] INFO  Umbraco.Core.PluginManager - Determining hash of code files on disk
 2017-07-31 14:08:49,458 [P9836/D2/T1] INFO  Umbraco.Core.PluginManager - Hash determined (took 11ms)
 2017-07-31 14:08:49,539 [P9836/D2/T1] INFO  Umbraco.Core.MainDom - Acquiring MainDom...
 2017-07-31 14:08:49,541 [P9836/D2/T1] INFO  Umbraco.Core.MainDom - Acquired MainDom.
 2017-07-31 14:08:49,543 [P9836/D2/T1] INFO  Umbraco.Core.PluginManager - Resolving umbraco.interfaces.IDiscoverable
 2017-07-31 14:08:49,700 [P9836/D2/T1] INFO  Umbraco.Core.PluginManager - Resolved umbraco.interfaces.IDiscoverable (took 157ms)
 2017-07-31 14:08:49,701 [P9836/D2/T1] INFO  Umbraco.Core.PluginManager - Resolving umbraco.interfaces.IApplicationStartupHandler
 2017-07-31 14:08:49,703 [P9836/D2/T1] INFO  Umbraco.Core.PluginManager - Resolved umbraco.interfaces.IApplicationStartupHandler (took 1ms)
 2017-07-31 14:08:49,754 [P9836/D2/T1] INFO  Umbraco.Core.PluginManager - Resolving umbraco.interfaces.IDiscoverable
 2017-07-31 14:08:49,755 [P9836/D2/T1] INFO  Umbraco.Core.PluginManager - Resolved umbraco.interfaces.IDiscoverable (took 1ms)
 2017-07-31 14:08:49,755 [P9836/D2/T1] INFO  Umbraco.Core.PluginManager - Resolving Umbraco.Core.PropertyEditors.IPropertyEditorValueConverter
 2017-07-31 14:08:49,755 [P9836/D2/T1] INFO  Umbraco.Core.PluginManager - Resolved Umbraco.Core.PropertyEditors.IPropertyEditorValueConverter (took 0ms)
 2017-07-31 14:08:49,756 [P9836/D2/T1] INFO  Umbraco.Core.PluginManager - Resolving umbraco.interfaces.IDiscoverable
 2017-07-31 14:08:49,757 [P9836/D2/T1] INFO  Umbraco.Core.PluginManager - Resolved umbraco.interfaces.IDiscoverable (took 0ms)
 2017-07-31 14:08:49,757 [P9836/D2/T1] INFO  Umbraco.Core.PluginManager - Resolving Umbraco.Core.PropertyEditors.IPropertyValueConverter
 2017-07-31 14:08:49,759 [P9836/D2/T1] INFO  Umbraco.Core.PluginManager - Resolved Umbraco.Core.PropertyEditors.IPropertyValueConverter (took 1ms)
 2017-07-31 14:08:49,776 [P9836/D2/T1] INFO  Umbraco.Core.PluginManager - Resolving umbraco.interfaces.IDiscoverable
 2017-07-31 14:08:49,777 [P9836/D2/T1] INFO  Umbraco.Core.PluginManager - Resolved umbraco.interfaces.IDiscoverable (took 0ms)
 2017-07-31 14:08:49,777 [P9836/D2/T1] INFO  Umbraco.Core.PluginManager - Resolving Umbraco.Web.Mvc.SurfaceController
 2017-07-31 14:08:49,778 [P9836/D2/T1] INFO  Umbraco.Core.PluginManager - Resolved Umbraco.Web.Mvc.SurfaceController (took 0ms)
 2017-07-31 14:08:49,779 [P9836/D2/T1] INFO  Umbraco.Core.PluginManager - Resolving umbraco.interfaces.IDiscoverable
 2017-07-31 14:08:49,780 [P9836/D2/T1] INFO  Umbraco.Core.PluginManager - Resolved umbraco.interfaces.IDiscoverable (took 0ms)
 2017-07-31 14:08:49,780 [P9836/D2/T1] INFO  Umbraco.Core.PluginManager - Resolving Umbraco.Web.WebApi.UmbracoApiController
 2017-07-31 14:08:49,782 [P9836/D2/T1] INFO  Umbraco.Core.PluginManager - Resolved Umbraco.Web.WebApi.UmbracoApiController (took 1ms)
 2017-07-31 14:08:51,116 [P9836/D2/T1] INFO  Umbraco.Core.DatabaseContext - CanConnect = True
 2017-07-31 14:08:51,364 [P9836/D2/T1] INFO  Umbraco.Web.Cache.CacheRefresherEventHandler - Initializing Umbraco internal event handlers for cache refreshing
 2017-07-31 14:08:51,514 [P9836/D2/T1] INFO  umbraco.content - Load Xml from file...
 2017-07-31 14:08:51,518 [P9836/D2/T1] INFO  umbraco.content - Loaded Xml from file.
 2017-07-31 14:08:52,022 [P9836/D2/T1] INFO  Umbraco.Core.PluginManager - Resolving umbraco.interfaces.IDiscoverable
 2017-07-31 14:08:52,022 [P9836/D2/T1] INFO  Umbraco.Core.PluginManager - Resolved umbraco.interfaces.IDiscoverable (took 0ms)
 2017-07-31 14:08:52,023 [P9836/D2/T1] INFO  Umbraco.Core.PluginManager - Resolving Umbraco.Core.PropertyEditors.IParameterEditor
 2017-07-31 14:08:52,024 [P9836/D2/T1] INFO  Umbraco.Core.PluginManager - Resolved Umbraco.Core.PropertyEditors.IParameterEditor (took 1ms)
 2017-07-31 14:08:52,476 [P9836/D2/T1] INFO  Articulate.ArticulateRoutes - Mapping routes for 1 Articulate root nodes
 2017-07-31 14:08:52,577 [P9836/D2/T1] INFO  Umbraco.Web.Search.ExamineEvents - Initializing Examine and binding to business logic events
 2017-07-31 14:08:52,695 [P9836/D2/T1] INFO  Umbraco.Web.Search.ExamineEvents - Adding examine event handlers for index providers: 3
 2017-07-31 14:08:52,726 [P9836/D2/T1] INFO  Umbraco.Core.CoreBootManager - Umbraco application startup complete (took 3392ms)
 2017-07-31 14:08:54,126 [P9836/D2/T10] INFO  Umbraco.Core.Sync.ApplicationUrlHelper - ApplicationUrl: http://localhost:1838/umbraco (UmbracoModule request)
 2017-07-31 14:11:02,828 [P10072/D2/T1] INFO  Umbraco.Core.CoreBootManager - Umbraco 7.6.4 application starting on WIN7-64BIT
 2017-07-31 14:11:03,065 [P10072/D2/T1] INFO  Umbraco.Core.PluginManager - Determining hash of code files on disk
 2017-07-31 14:11:03,174 [P10072/D2/T1] INFO  Umbraco.Core.PluginManager - Hash determined (took 109ms)
 2017-07-31 14:11:04,071 [P10072/D2/T1] INFO  Umbraco.Core.MainDom - Acquiring MainDom...
 2017-07-31 14:11:04,094 [P10072/D2/T1] INFO  Umbraco.Core.MainDom - Acquired MainDom.
 2017-07-31 14:11:04,125 [P10072/D2/T1] INFO  Umbraco.Core.PluginManager - Resolving umbraco.interfaces.IDiscoverable
 2017-07-31 14:11:05,913 [P10072/D2/T1] INFO  Umbraco.Core.PluginManager - Resolved umbraco.interfaces.IDiscoverable (took 1788ms)
 2017-07-31 14:11:05,917 [P10072/D2/T1] INFO  Umbraco.Core.PluginManager - Resolving umbraco.interfaces.IApplicationStartupHandler
 2017-07-31 14:11:05,940 [P10072/D2/T1] INFO  Umbraco.Core.PluginManager - Resolved umbraco.interfaces.IApplicationStartupHandler (took 23ms)
 2017-07-31 14:11:06,534 [P10072/D2/T1] INFO  Umbraco.Core.PluginManager - Resolving umbraco.interfaces.IDiscoverable
 2017-07-31 14:11:06,543 [P10072/D2/T1] INFO  Umbraco.Core.PluginManager - Resolved umbraco.interfaces.IDiscoverable (took 8ms)
 2017-07-31 14:11:06,545 [P10072/D2/T1] INFO  Umbraco.Core.PluginManager - Resolving Umbraco.Core.PropertyEditors.IPropertyEditorValueConverter
 2017-07-31 14:11:06,549 [P10072/D2/T1] INFO  Umbraco.Core.PluginManager - Resolved Umbraco.Core.PropertyEditors.IPropertyEditorValueConverter (took 4ms)
 2017-07-31 14:11:06,556 [P10072/D2/T1] INFO  Umbraco.Core.PluginManager - Resolving umbraco.interfaces.IDiscoverable
 2017-07-31 14:11:06,559 [P10072/D2/T1] INFO  Umbraco.Core.PluginManager - Resolved umbraco.interfaces.IDiscoverable (took 3ms)
 2017-07-31 14:11:06,563 [P10072/D2/T1] INFO  Umbraco.Core.PluginManager - Resolving Umbraco.Core.PropertyEditors.IPropertyValueConverter
 2017-07-31 14:11:06,578 [P10072/D2/T1] INFO  Umbraco.Core.PluginManager - Resolved Umbraco.Core.PropertyEditors.IPropertyValueConverter (took 15ms)
 2017-07-31 14:11:06,805 [P10072/D2/T1] INFO  Umbraco.Core.PluginManager - Resolving umbraco.interfaces.IDiscoverable
 2017-07-31 14:11:06,808 [P10072/D2/T1] INFO  Umbraco.Core.PluginManager - Resolved umbraco.interfaces.IDiscoverable (took 3ms)
 2017-07-31 14:11:06,810 [P10072/D2/T1] INFO  Umbraco.Core.PluginManager - Resolving Umbraco.Web.Mvc.SurfaceController
 2017-07-31 14:11:06,814 [P10072/D2/T1] INFO  Umbraco.Core.PluginManager - Resolved Umbraco.Web.Mvc.SurfaceController (took 4ms)
 2017-07-31 14:11:06,821 [P10072/D2/T1] INFO  Umbraco.Core.PluginManager - Resolving umbraco.interfaces.IDiscoverable
 2017-07-31 14:11:06,846 [P10072/D2/T1] INFO  Umbraco.Core.PluginManager - Resolved umbraco.interfaces.IDiscoverable (took 25ms)
 2017-07-31 14:11:06,855 [P10072/D2/T1] INFO  Umbraco.Core.PluginManager - Resolving Umbraco.Web.WebApi.UmbracoApiController
 2017-07-31 14:11:06,871 [P10072/D2/T1] INFO  Umbraco.Core.PluginManager - Resolved Umbraco.Web.WebApi.UmbracoApiController (took 15ms)
 2017-07-31 14:11:18,098 [P10072/D2/T1] INFO  Umbraco.Core.DatabaseContext - CanConnect = True
 2017-07-31 14:11:18,489 [P10072/D2/T1] INFO  Umbraco.Web.Cache.CacheRefresherEventHandler - Initializing Umbraco internal event handlers for cache refreshing
 2017-07-31 14:11:18,655 [P10072/D2/T1] INFO  umbraco.content - Load Xml from file...
 2017-07-31 14:11:18,659 [P10072/D2/T1] INFO  umbraco.content - Loaded Xml from file.
 2017-07-31 14:11:20,021 [P10072/D2/T1] INFO  Umbraco.Core.PluginManager - Resolving umbraco.interfaces.IDiscoverable
 2017-07-31 14:11:20,024 [P10072/D2/T1] INFO  Umbraco.Core.PluginManager - Resolved umbraco.interfaces.IDiscoverable (took 3ms)
 2017-07-31 14:11:20,029 [P10072/D2/T1] INFO  Umbraco.Core.PluginManager - Resolving Umbraco.Core.PropertyEditors.IParameterEditor
 2017-07-31 14:11:20,041 [P10072/D2/T1] INFO  Umbraco.Core.PluginManager - Resolved Umbraco.Core.PropertyEditors.IParameterEditor (took 13ms)
 2017-07-31 14:11:25,840 [P10072/D2/T1] INFO  Articulate.ArticulateRoutes - Mapping routes for 1 Articulate root nodes
 2017-07-31 14:11:27,158 [P10072/D2/T1] INFO  Umbraco.Web.Search.ExamineEvents - Initializing Examine and binding to business logic events
 2017-07-31 14:11:28,557 [P10072/D2/T1] INFO  Umbraco.Web.Search.ExamineEvents - Adding examine event handlers for index providers: 3
 2017-07-31 14:11:28,933 [P10072/D2/T1] INFO  Umbraco.Core.CoreBootManager - Umbraco application startup complete (took 27139ms)
 2017-07-31 14:11:30,772 [P10072/D2/T16] INFO  Umbraco.Core.Sync.ApplicationUrlHelper - ApplicationUrl: http://localhost:1838/umbraco (UmbracoModule request)
 2017-07-31 14:12:29,530 [P5268/D2/T1] INFO  Umbraco.Core.CoreBootManager - Umbraco 7.6.4 application starting on WIN7-64BIT
 2017-07-31 14:12:29,556 [P5268/D2/T1] INFO  Umbraco.Core.PluginManager - Determining hash of code files on disk
 2017-07-31 14:12:29,566 [P5268/D2/T1] INFO  Umbraco.Core.PluginManager - Hash determined (took 10ms)
 2017-07-31 14:12:29,662 [P5268/D2/T1] INFO  Umbraco.Core.MainDom - Acquiring MainDom...
 2017-07-31 14:12:29,664 [P5268/D2/T1] INFO  Umbraco.Core.MainDom - Acquired MainDom.
 2017-07-31 14:12:29,667 [P5268/D2/T1] INFO  Umbraco.Core.PluginManager - Resolving umbraco.interfaces.IDiscoverable
 2017-07-31 14:12:32,427 [P5268/D2/T1] INFO  Umbraco.Core.PluginManager - Resolved umbraco.interfaces.IDiscoverable (took 2759ms)
 2017-07-31 14:12:32,430 [P5268/D2/T1] INFO  Umbraco.Core.PluginManager - Resolving umbraco.interfaces.IApplicationStartupHandler
 2017-07-31 14:12:32,461 [P5268/D2/T1] INFO  Umbraco.Core.PluginManager - Resolved umbraco.interfaces.IApplicationStartupHandler (took 31ms)
 2017-07-31 14:12:32,678 [P5268/D2/T1] INFO  Umbraco.Core.PluginManager - Resolving umbraco.interfaces.IDiscoverable
 2017-07-31 14:12:32,685 [P5268/D2/T1] INFO  Umbraco.Core.PluginManager - Resolved umbraco.interfaces.IDiscoverable (took 7ms)
 2017-07-31 14:12:32,687 [P5268/D2/T1] INFO  Umbraco.Core.PluginManager - Resolving Umbraco.Core.PropertyEditors.IPropertyEditorValueConverter
 2017-07-31 14:12:32,700 [P5268/D2/T1] INFO  Umbraco.Core.PluginManager - Resolved Umbraco.Core.PropertyEditors.IPropertyEditorValueConverter (took 13ms)
 2017-07-31 14:12:32,707 [P5268/D2/T1] INFO  Umbraco.Core.PluginManager - Resolving umbraco.interfaces.IDiscoverable
 2017-07-31 14:12:32,709 [P5268/D2/T1] INFO  Umbraco.Core.PluginManager - Resolved umbraco.interfaces.IDiscoverable (took 2ms)
 2017-07-31 14:12:32,711 [P5268/D2/T1] INFO  Umbraco.Core.PluginManager - Resolving Umbraco.Core.PropertyEditors.IPropertyValueConverter
 2017-07-31 14:12:32,730 [P5268/D2/T1] INFO  Umbraco.Core.PluginManager - Resolved Umbraco.Core.PropertyEditors.IPropertyValueConverter (took 19ms)
 2017-07-31 14:12:32,969 [P5268/D2/T1] INFO  Umbraco.Core.PluginManager - Resolving umbraco.interfaces.IDiscoverable
 2017-07-31 14:12:32,972 [P5268/D2/T1] INFO  Umbraco.Core.PluginManager - Resolved umbraco.interfaces.IDiscoverable (took 4ms)
 2017-07-31 14:12:32,977 [P5268/D2/T1] INFO  Umbraco.Core.PluginManager - Resolving Umbraco.Web.Mvc.SurfaceController
 2017-07-31 14:12:32,996 [P5268/D2/T1] INFO  Umbraco.Core.PluginManager - Resolved Umbraco.Web.Mvc.SurfaceController (took 20ms)
 2017-07-31 14:12:33,007 [P5268/D2/T1] INFO  Umbraco.Core.PluginManager - Resolving umbraco.interfaces.IDiscoverable
 2017-07-31 14:12:33,012 [P5268/D2/T1] INFO  Umbraco.Core.PluginManager - Resolved umbraco.interfaces.IDiscoverable (took 5ms)
 2017-07-31 14:12:33,022 [P5268/D2/T1] INFO  Umbraco.Core.PluginManager - Resolving Umbraco.Web.WebApi.UmbracoApiController
 2017-07-31 14:12:33,039 [P5268/D2/T1] INFO  Umbraco.Core.PluginManager - Resolved Umbraco.Web.WebApi.UmbracoApiController (took 17ms)
 2017-07-31 14:12:40,843 [P5268/D2/T1] INFO  Umbraco.Core.DatabaseContext - CanConnect = True
 2017-07-31 14:12:43,695 [P5268/D2/T1] INFO  Umbraco.Web.Cache.CacheRefresherEventHandler - Initializing Umbraco internal event handlers for cache refreshing
 2017-07-31 14:12:44,803 [P5268/D2/T1] INFO  umbraco.content - Load Xml from file...
 2017-07-31 14:12:44,850 [P5268/D2/T1] INFO  umbraco.content - Loaded Xml from file.
 2017-07-31 14:12:50,910 [P5268/D2/T1] INFO  Umbraco.Core.PluginManager - Resolving umbraco.interfaces.IDiscoverable
 2017-07-31 14:12:50,912 [P5268/D2/T1] INFO  Umbraco.Core.PluginManager - Resolved umbraco.interfaces.IDiscoverable (took 1ms)
 2017-07-31 14:12:50,915 [P5268/D2/T1] INFO  Umbraco.Core.PluginManager - Resolving Umbraco.Core.PropertyEditors.IParameterEditor
 2017-07-31 14:12:50,932 [P5268/D2/T1] INFO  Umbraco.Core.PluginManager - Resolved Umbraco.Core.PropertyEditors.IParameterEditor (took 17ms)
 2017-07-31 14:13:01,803 [P5268/D2/T1] INFO  Articulate.ArticulateRoutes - Mapping routes for 1 Articulate root nodes
 2017-07-31 14:13:01,863 [P5268/D2/T1] INFO  Umbraco.Web.Search.ExamineEvents - Initializing Examine and binding to business logic events
 2017-07-31 14:13:01,972 [P5268/D2/T1] INFO  Umbraco.Web.Search.ExamineEvents - Adding examine event handlers for index providers: 3
 2017-07-31 14:13:02,001 [P5268/D2/T1] INFO  Umbraco.Core.CoreBootManager - Umbraco application startup complete (took 32550ms)
 2017-07-31 14:13:02,296 [P5268/D2/T10] INFO  Umbraco.Core.Sync.ApplicationUrlHelper - ApplicationUrl: http://localhost:1838/umbraco (UmbracoModule request)
 2017-07-31 14:13:36,558 [P5268/D2/T10] WARN  Umbraco.Web.UmbracoModule - Status code is 404 yet TrySkipIisCustomErrors is false - IIS will take over.
 2017-07-31 14:14:02,661 [P5268/D2/T18] INFO  umbraco.BusinessLogic.Log - Log scrubbed.  Removed all items older than 2017-07-30 14:14:02
 2017-07-31 14:14:02,770 [P5268/D2/T11] INFO  Umbraco.Core.PluginManager - Resolving umbraco.interfaces.IDiscoverable
 2017-07-31 14:14:02,770 [P5268/D2/T11] INFO  Umbraco.Core.PluginManager - Resolved umbraco.interfaces.IDiscoverable (took 0ms)
 2017-07-31 14:14:02,770 [P5268/D2/T11] INFO  Umbraco.Core.PluginManager - Resolving [Umbraco.Core.Persistence.Mappers.MapperForAttribute]Umbraco.Core.Persistence.Mappers.BaseMapper
 2017-07-31 14:14:02,786 [P5268/D2/T11] INFO  Umbraco.Core.PluginManager - Resolved [Umbraco.Core.Persistence.Mappers.MapperForAttribute]Umbraco.Core.Persistence.Mappers.BaseMapper (took 7ms)
 2017-07-31 14:14:20,236 [P5268/D2/T8] INFO  Umbraco.Core.PluginManager - Resolving umbraco.interfaces.IDiscoverable
 2017-07-31 14:14:20,237 [P5268/D2/T8] INFO  Umbraco.Core.PluginManager - Resolved umbraco.interfaces.IDiscoverable (took 0ms)
 2017-07-31 14:14:20,237 [P5268/D2/T8] INFO  Umbraco.Core.PluginManager - Resolving umbraco.interfaces.IAction
 2017-07-31 14:14:20,241 [P5268/D2/T8] INFO  Umbraco.Core.PluginManager - Resolved umbraco.interfaces.IAction (took 3ms)
 2017-07-31 14:14:30,625 [P5268/D2/T5] INFO  Umbraco.Core.Security.BackOfficeSignInManager - Event Id: 0, state: Login attempt succeeded for username phil.traynor@gmail.com from IP address ::1
 2017-07-31 14:14:30,625 [P5268/D2/T5] INFO  Umbraco.Core.Security.BackOfficeSignInManager - Event Id: 0, state: User: phil.traynor@gmail.com logged in from IP address ::1
 2017-07-31 14:14:30,835 [P5268/D2/T20] INFO  Umbraco.Core.PluginManager - Resolving umbraco.interfaces.IDiscoverable
 2017-07-31 14:14:30,835 [P5268/D2/T20] INFO  Umbraco.Core.PluginManager - Resolved umbraco.interfaces.IDiscoverable (took 0ms)
 2017-07-31 14:14:30,835 [P5268/D2/T20] INFO  Umbraco.Core.PluginManager - Resolving [Umbraco.Web.Trees.TreeAttribute]Umbraco.Web.Trees.TreeController
 2017-07-31 14:14:30,835 [P5268/D2/T20] INFO  Umbraco.Core.PluginManager - Resolved [Umbraco.Web.Trees.TreeAttribute]Umbraco.Web.Trees.TreeController (took 2ms)
 2017-07-31 14:14:30,935 [P5268/D2/T7] INFO  Umbraco.Core.PluginManager - Resolving umbraco.interfaces.IDiscoverable
 2017-07-31 14:14:30,936 [P5268/D2/T7] INFO  Umbraco.Core.PluginManager - Resolved umbraco.interfaces.IDiscoverable (took 0ms)
 2017-07-31 14:14:30,936 [P5268/D2/T7] INFO  Umbraco.Core.PluginManager - Resolving [umbraco.businesslogic.ApplicationAttribute]umbraco.interfaces.IApplication
 2017-07-31 14:14:30,939 [P5268/D2/T7] INFO  Umbraco.Core.PluginManager - Resolved [umbraco.businesslogic.ApplicationAttribute]umbraco.interfaces.IApplication (took 2ms)
 2017-07-31 14:14:30,967 [P5268/D2/T11] INFO  Umbraco.Core.PluginManager - Resolving umbraco.interfaces.IDiscoverable
 2017-07-31 14:14:30,968 [P5268/D2/T11] INFO  Umbraco.Core.PluginManager - Resolved umbraco.interfaces.IDiscoverable (took 0ms)
 2017-07-31 14:14:30,968 [P5268/D2/T11] INFO  Umbraco.Core.PluginManager - Resolving umbraco.interfaces.ITree
 2017-07-31 14:14:30,970 [P5268/D2/T11] INFO  Umbraco.Core.PluginManager - Resolved umbraco.interfaces.ITree (took 1ms)
 2017-07-31 14:14:30,993 [P5268/D2/T11] INFO  Umbraco.Core.PluginManager - Resolving umbraco.interfaces.IDiscoverable
 2017-07-31 14:14:30,993 [P5268/D2/T11] INFO  Umbraco.Core.PluginManager - Resolved umbraco.interfaces.IDiscoverable (took 0ms)
 2017-07-31 14:14:30,994 [P5268/D2/T11] INFO  Umbraco.Core.PluginManager - Resolving [Umbraco.Web.Trees.TreeAttribute]Umbraco.Web.Trees.TreeController
 2017-07-31 14:14:30,994 [P5268/D2/T11] INFO  Umbraco.Core.PluginManager - Resolved [Umbraco.Web.Trees.TreeAttribute]Umbraco.Web.Trees.TreeController (took 0ms)
 2017-07-31 14:14:30,999 [P5268/D2/T11] INFO  Umbraco.Core.PluginManager - Resolving umbraco.interfaces.IDiscoverable
 2017-07-31 14:14:30,999 [P5268/D2/T11] INFO  Umbraco.Core.PluginManager - Resolved umbraco.interfaces.IDiscoverable (took 0ms)
 2017-07-31 14:14:30,999 [P5268/D2/T11] INFO  Umbraco.Core.PluginManager - Resolving [umbraco.businesslogic.TreeAttribute]umbraco.interfaces.ITree
 2017-07-31 14:14:31,002 [P5268/D2/T11] INFO  Umbraco.Core.PluginManager - Resolved [umbraco.businesslogic.TreeAttribute]umbraco.interfaces.ITree (took 3ms)
 2017-07-31 14:14:31,353 [P5268/D2/T5] INFO  Umbraco.Core.PluginManager - Resolving umbraco.interfaces.IDiscoverable
 2017-07-31 14:14:31,353 [P5268/D2/T5] INFO  Umbraco.Core.PluginManager - Resolved umbraco.interfaces.IDiscoverable (took 0ms)
 2017-07-31 14:14:31,353 [P5268/D2/T5] INFO  Umbraco.Core.PluginManager - Resolving Umbraco.Core.Deploy.IServiceConnector
 2017-07-31 14:14:31,355 [P5268/D2/T5] INFO  Umbraco.Core.PluginManager - Resolved Umbraco.Core.Deploy.IServiceConnector (took 1ms)
 2017-07-31 14:15:47,880 [P5268/D2/T6] INFO  Umbraco.Core.PluginManager - Resolving umbraco.interfaces.IDiscoverable
 2017-07-31 14:15:47,883 [P5268/D2/T6] INFO  Umbraco.Core.PluginManager - Resolved umbraco.interfaces.IDiscoverable (took 3ms)
 2017-07-31 14:15:47,886 [P5268/D2/T6] INFO  Umbraco.Core.PluginManager - Resolving umbraco.interfaces.ICacheRefresher
 2017-07-31 14:15:47,904 [P5268/D2/T6] INFO  Umbraco.Core.PluginManager - Resolved umbraco.interfaces.ICacheRefresher (took 18ms)
 2017-07-31 14:15:50,004 [P5268/D2/T6] INFO  Articulate.ArticulateRoutes - Mapping routes for 1 Articulate root nodes
 2017-07-31 14:18:09,748 [P5268/D2/T18] INFO  Umbraco.Core.Publishing.PublishingStrategy - Content 'Another blog Post - Maybe about MVC' with Id '0' has been published.
 2017-07-31 14:18:15,195 [P5268/D2/T52] INFO  umbraco.content - Save Xml to file...
 2017-07-31 14:18:15,198 [P5268/D2/T52] INFO  umbraco.content - Saved Xml to file.
 2017-07-31 15:06:40,059 [P4504/D2/T1] INFO  Umbraco.Core.CoreBootManager - Umbraco 7.6.4 application starting on WIN7-64BIT
 2017-07-31 15:06:41,048 [P4504/D2/T1] INFO  Umbraco.Core.PluginManager - Determining hash of code files on disk
 2017-07-31 15:06:41,200 [P4504/D2/T1] INFO  Umbraco.Core.PluginManager - Hash determined (took 154ms)
 2017-07-31 15:06:42,671 [P4504/D2/T1] INFO  Umbraco.Core.MainDom - Acquiring MainDom...
 2017-07-31 15:06:42,691 [P4504/D2/T1] INFO  Umbraco.Core.MainDom - Acquired MainDom.
 2017-07-31 15:06:42,722 [P4504/D2/T1] INFO  Umbraco.Core.PluginManager - Resolving umbraco.interfaces.IDiscoverable
 2017-07-31 15:06:49,514 [P4504/D2/T1] INFO  Umbraco.Core.PluginManager - Resolved umbraco.interfaces.IDiscoverable (took 6792ms)
 2017-07-31 15:06:49,514 [P4504/D2/T1] INFO  Umbraco.Core.PluginManager - Resolving umbraco.interfaces.IApplicationStartupHandler
 2017-07-31 15:06:49,517 [P4504/D2/T1] INFO  Umbraco.Core.PluginManager - Resolved umbraco.interfaces.IApplicationStartupHandler (took 2ms)
 2017-07-31 15:06:49,539 [P4504/D2/T1] INFO  Umbraco.Core.PluginManager - Resolving umbraco.interfaces.IDiscoverable
 2017-07-31 15:06:49,540 [P4504/D2/T1] INFO  Umbraco.Core.PluginManager - Resolved umbraco.interfaces.IDiscoverable (took 0ms)
 2017-07-31 15:06:49,540 [P4504/D2/T1] INFO  Umbraco.Core.PluginManager - Resolving Umbraco.Core.PropertyEditors.IPropertyEditorValueConverter
 2017-07-31 15:06:49,542 [P4504/D2/T1] INFO  Umbraco.Core.PluginManager - Resolved Umbraco.Core.PropertyEditors.IPropertyEditorValueConverter (took 1ms)
 2017-07-31 15:06:49,543 [P4504/D2/T1] INFO  Umbraco.Core.PluginManager - Resolving umbraco.interfaces.IDiscoverable
 2017-07-31 15:06:49,543 [P4504/D2/T1] INFO  Umbraco.Core.PluginManager - Resolved umbraco.interfaces.IDiscoverable (took 0ms)
 2017-07-31 15:06:49,544 [P4504/D2/T1] INFO  Umbraco.Core.PluginManager - Resolving Umbraco.Core.PropertyEditors.IPropertyValueConverter
 2017-07-31 15:06:49,547 [P4504/D2/T1] INFO  Umbraco.Core.PluginManager - Resolved Umbraco.Core.PropertyEditors.IPropertyValueConverter (took 3ms)
 2017-07-31 15:06:49,573 [P4504/D2/T1] INFO  Umbraco.Core.PluginManager - Resolving umbraco.interfaces.IDiscoverable
 2017-07-31 15:06:49,573 [P4504/D2/T1] INFO  Umbraco.Core.PluginManager - Resolved umbraco.interfaces.IDiscoverable (took 0ms)
 2017-07-31 15:06:49,573 [P4504/D2/T1] INFO  Umbraco.Core.PluginManager - Resolving Umbraco.Web.Mvc.SurfaceController
 2017-07-31 15:06:49,575 [P4504/D2/T1] INFO  Umbraco.Core.PluginManager - Resolved Umbraco.Web.Mvc.SurfaceController (took 1ms)
 2017-07-31 15:06:49,576 [P4504/D2/T1] INFO  Umbraco.Core.PluginManager - Resolving umbraco.interfaces.IDiscoverable
 2017-07-31 15:06:49,577 [P4504/D2/T1] INFO  Umbraco.Core.PluginManager - Resolved umbraco.interfaces.IDiscoverable (took 0ms)
 2017-07-31 15:06:49,577 [P4504/D2/T1] INFO  Umbraco.Core.PluginManager - Resolving Umbraco.Web.WebApi.UmbracoApiController
 2017-07-31 15:06:49,579 [P4504/D2/T1] INFO  Umbraco.Core.PluginManager - Resolved Umbraco.Web.WebApi.UmbracoApiController (took 2ms)
 2017-07-31 15:06:54,312 [P4504/D2/T1] INFO  Umbraco.Core.DatabaseContext - CanConnect = True
 2017-07-31 15:06:58,419 [P4504/D2/T1] INFO  Umbraco.Web.Cache.CacheRefresherEventHandler - Initializing Umbraco internal event handlers for cache refreshing
 2017-07-31 15:06:59,719 [P4504/D2/T1] INFO  umbraco.content - Load Xml from file...
 2017-07-31 15:06:59,765 [P4504/D2/T1] INFO  umbraco.content - Loaded Xml from file.
 2017-07-31 15:07:01,297 [P4504/D2/T1] INFO  Umbraco.Core.PluginManager - Resolving umbraco.interfaces.IDiscoverable
 2017-07-31 15:07:01,298 [P4504/D2/T1] INFO  Umbraco.Core.PluginManager - Resolved umbraco.interfaces.IDiscoverable (took 0ms)
 2017-07-31 15:07:01,298 [P4504/D2/T1] INFO  Umbraco.Core.PluginManager - Resolving Umbraco.Core.PropertyEditors.IParameterEditor
 2017-07-31 15:07:01,302 [P4504/D2/T1] INFO  Umbraco.Core.PluginManager - Resolved Umbraco.Core.PropertyEditors.IParameterEditor (took 3ms)
 2017-07-31 15:07:21,608 [P4504/D2/T1] INFO  Articulate.ArticulateRoutes - Mapping routes for 1 Articulate root nodes
 2017-07-31 15:07:21,701 [P4504/D2/T1] INFO  Umbraco.Web.Search.ExamineEvents - Initializing Examine and binding to business logic events
 2017-07-31 15:07:21,851 [P4504/D2/T1] INFO  Umbraco.Web.Search.ExamineEvents - Adding examine event handlers for index providers: 3
 2017-07-31 15:07:21,893 [P4504/D2/T1] INFO  Umbraco.Core.CoreBootManager - Umbraco application startup complete (took 42611ms)
 2017-07-31 15:07:22,134 [P4504/D2/T12] INFO  Umbraco.Core.Sync.ApplicationUrlHelper - ApplicationUrl: http://localhost:1838/umbraco (UmbracoModule request)
 2017-07-31 15:08:36,557 [P4504/D2/T17] INFO  umbraco.BusinessLogic.Log - Log scrubbed.  Removed all items older than 2017-07-30 15:08:36
 2017-07-31 15:08:47,549 [P4504/D2/T11] INFO  Umbraco.Core.PluginManager - Resolving umbraco.interfaces.IDiscoverable
 2017-07-31 15:08:47,549 [P4504/D2/T11] INFO  Umbraco.Core.PluginManager - Resolved umbraco.interfaces.IDiscoverable (took 0ms)
 2017-07-31 15:08:47,550 [P4504/D2/T11] INFO  Umbraco.Core.PluginManager - Resolving [Umbraco.Core.Persistence.Mappers.MapperForAttribute]Umbraco.Core.Persistence.Mappers.BaseMapper
 2017-07-31 15:08:47,556 [P4504/D2/T11] INFO  Umbraco.Core.PluginManager - Resolved [Umbraco.Core.Persistence.Mappers.MapperForAttribute]Umbraco.Core.Persistence.Mappers.BaseMapper (took 5ms)
 2017-07-31 15:18:02,240 [P4052/D3/T25] INFO  Umbraco.Core.CoreBootManager - Umbraco 7.6.4 application starting on WIN7-64BIT
 2017-07-31 15:18:02,280 [P4052/D3/T25] INFO  Umbraco.Core.PluginManager - Determining hash of code files on disk
 2017-07-31 15:18:02,292 [P4052/D3/T25] INFO  Umbraco.Core.PluginManager - Hash determined (took 12ms)
 2017-07-31 15:18:02,473 [P4052/D3/T25] INFO  Umbraco.Core.MainDom - Acquiring MainDom...
 2017-07-31 15:18:02,481 [P4052/D3/T25] INFO  Umbraco.Core.MainDom - Acquired MainDom.
 2017-07-31 15:18:02,484 [P4052/D3/T25] INFO  Umbraco.Core.PluginManager - Resolving umbraco.interfaces.IDiscoverable
 2017-07-31 15:18:04,297 [P4052/D3/T25] INFO  Umbraco.Core.PluginManager - Resolved umbraco.interfaces.IDiscoverable (took 1812ms)
 2017-07-31 15:18:04,298 [P4052/D3/T25] INFO  Umbraco.Core.PluginManager - Resolving umbraco.interfaces.IApplicationStartupHandler
 2017-07-31 15:18:04,300 [P4052/D3/T25] INFO  Umbraco.Core.PluginManager - Resolved umbraco.interfaces.IApplicationStartupHandler (took 2ms)
 2017-07-31 15:18:04,346 [P4052/D3/T25] INFO  Umbraco.Core.PluginManager - Resolving umbraco.interfaces.IDiscoverable
 2017-07-31 15:18:04,347 [P4052/D3/T25] INFO  Umbraco.Core.PluginManager - Resolved umbraco.interfaces.IDiscoverable (took 1ms)
 2017-07-31 15:18:04,348 [P4052/D3/T25] INFO  Umbraco.Core.PluginManager - Resolving Umbraco.Core.PropertyEditors.IPropertyEditorValueConverter
 2017-07-31 15:18:04,349 [P4052/D3/T25] INFO  Umbraco.Core.PluginManager - Resolved Umbraco.Core.PropertyEditors.IPropertyEditorValueConverter (took 1ms)
 2017-07-31 15:18:04,350 [P4052/D3/T25] INFO  Umbraco.Core.PluginManager - Resolving umbraco.interfaces.IDiscoverable
 2017-07-31 15:18:04,351 [P4052/D3/T25] INFO  Umbraco.Core.PluginManager - Resolved umbraco.interfaces.IDiscoverable (took 0ms)
 2017-07-31 15:18:04,352 [P4052/D3/T25] INFO  Umbraco.Core.PluginManager - Resolving Umbraco.Core.PropertyEditors.IPropertyValueConverter
 2017-07-31 15:18:04,354 [P4052/D3/T25] INFO  Umbraco.Core.PluginManager - Resolved Umbraco.Core.PropertyEditors.IPropertyValueConverter (took 2ms)
 2017-07-31 15:18:04,391 [P4052/D3/T25] INFO  Umbraco.Core.PluginManager - Resolving umbraco.interfaces.IDiscoverable
 2017-07-31 15:18:04,392 [P4052/D3/T25] INFO  Umbraco.Core.PluginManager - Resolved umbraco.interfaces.IDiscoverable (took 0ms)
 2017-07-31 15:18:04,392 [P4052/D3/T25] INFO  Umbraco.Core.PluginManager - Resolving Umbraco.Web.Mvc.SurfaceController
 2017-07-31 15:18:04,394 [P4052/D3/T25] INFO  Umbraco.Core.PluginManager - Resolved Umbraco.Web.Mvc.SurfaceController (took 1ms)
 2017-07-31 15:18:04,395 [P4052/D3/T25] INFO  Umbraco.Core.PluginManager - Resolving umbraco.interfaces.IDiscoverable
 2017-07-31 15:18:04,395 [P4052/D3/T25] INFO  Umbraco.Core.PluginManager - Resolved umbraco.interfaces.IDiscoverable (took 0ms)
 2017-07-31 15:18:04,396 [P4052/D3/T25] INFO  Umbraco.Core.PluginManager - Resolving Umbraco.Web.WebApi.UmbracoApiController
 2017-07-31 15:18:04,397 [P4052/D3/T25] INFO  Umbraco.Core.PluginManager - Resolved Umbraco.Web.WebApi.UmbracoApiController (took 1ms)
 2017-07-31 15:18:16,928 [P4052/D3/T25] INFO  Umbraco.Core.DatabaseContext - CanConnect = True
 2017-07-31 15:18:17,851 [P4052/D3/T25] INFO  Umbraco.Web.Cache.CacheRefresherEventHandler - Initializing Umbraco internal event handlers for cache refreshing
 2017-07-31 15:18:17,930 [P4052/D3/T25] INFO  Umbraco.Web.Search.ExamineEvents - Initializing Examine and binding to business logic events
 2017-07-31 15:18:18,136 [P4052/D3/T25] INFO  Umbraco.Web.Search.ExamineEvents - Adding examine event handlers for index providers: 3
 2017-07-31 15:18:18,369 [P4052/D3/T25] INFO  umbraco.content - Load Xml from file...
 2017-07-31 15:18:18,408 [P4052/D3/T25] INFO  umbraco.content - Loaded Xml from file.
 2017-07-31 15:18:20,510 [P4052/D3/T25] INFO  Umbraco.Core.PluginManager - Resolving umbraco.interfaces.IDiscoverable
 2017-07-31 15:18:20,511 [P4052/D3/T25] INFO  Umbraco.Core.PluginManager - Resolved umbraco.interfaces.IDiscoverable (took 1ms)
 2017-07-31 15:18:20,511 [P4052/D3/T25] INFO  Umbraco.Core.PluginManager - Resolving Umbraco.Core.PropertyEditors.IParameterEditor
 2017-07-31 15:18:20,514 [P4052/D3/T25] INFO  Umbraco.Core.PluginManager - Resolved Umbraco.Core.PropertyEditors.IParameterEditor (took 2ms)
 2017-07-31 15:18:21,426 [P4052/D3/T25] INFO  Articulate.ArticulateRoutes - Mapping routes for 1 Articulate root nodes
 2017-07-31 15:18:21,594 [P4052/D3/T25] WARN  Umbraco.Core.Sync.DatabaseServerMessenger - No last synced Id found, this generally means this is a new server/install. The server will build its caches and indexes, and then adjust its last synced Id to the latest found in the database and maintain cache updates based on that Id.
 2017-07-31 15:18:21,638 [P4052/D3/T25] INFO  umbraco.content - Loading content from database...
 2017-07-31 15:18:21,823 [P4052/D3/T25] INFO  UmbracoExamine.DataServices.UmbracoLogService - Rebuilding index, Provider=InternalMemberIndexer, NodeId=-1
 2017-07-31 15:18:21,961 [P4052/D3/T25] INFO  UmbracoExamine.DataServices.UmbracoLogService - PerformIndexAll - Start data queries - member, Provider=InternalMemberIndexer, NodeId=-1
 2017-07-31 15:18:22,091 [P4052/D3/T25] INFO  UmbracoExamine.DataServices.UmbracoLogService - PerformIndexAll - End data queries - member, took 129ms, Provider=InternalMemberIndexer, NodeId=-1
 2017-07-31 15:18:22,094 [P4052/D3/T25] INFO  UmbracoExamine.DataServices.UmbracoLogService - Rebuilding index, Provider=InternalIndexer, NodeId=-1
 2017-07-31 15:18:22,112 [P4052/D3/T25] INFO  UmbracoExamine.DataServices.UmbracoLogService - PerformIndexAll - Start data queries - content, Provider=InternalIndexer, NodeId=-1
 2017-07-31 15:18:22,593 [P4052/D3/T25] INFO  UmbracoExamine.DataServices.UmbracoLogService - PerformIndexAll - End data queries - content, took 481ms, Provider=InternalIndexer, NodeId=-1
 2017-07-31 15:18:22,594 [P4052/D3/T25] INFO  UmbracoExamine.DataServices.UmbracoLogService - PerformIndexAll - Start data queries - media, Provider=InternalIndexer, NodeId=-1
 2017-07-31 15:18:22,609 [P4052/D3/T25] INFO  UmbracoExamine.DataServices.UmbracoLogService - PerformIndexAll - End data queries - media, took 14ms, Provider=InternalIndexer, NodeId=-1
 2017-07-31 15:18:22,609 [P4052/D3/T25] INFO  UmbracoExamine.DataServices.UmbracoLogService - Rebuilding index, Provider=ExternalIndexer, NodeId=-1
 2017-07-31 15:18:22,618 [P4052/D3/T25] INFO  UmbracoExamine.DataServices.UmbracoLogService - PerformIndexAll - Start data queries - content, Provider=ExternalIndexer, NodeId=-1
 2017-07-31 15:18:22,673 [P4052/D3/T25] INFO  UmbracoExamine.DataServices.UmbracoLogService - PerformIndexAll - End data queries - content, took 54ms, Provider=ExternalIndexer, NodeId=-1
 2017-07-31 15:18:22,674 [P4052/D3/T25] INFO  UmbracoExamine.DataServices.UmbracoLogService - PerformIndexAll - Start data queries - media, Provider=ExternalIndexer, NodeId=-1
 2017-07-31 15:18:22,684 [P4052/D3/T25] INFO  UmbracoExamine.DataServices.UmbracoLogService - PerformIndexAll - End data queries - media, took 9ms, Provider=ExternalIndexer, NodeId=-1
 2017-07-31 15:18:22,701 [P4052/D3/T25] INFO  Umbraco.Core.CoreBootManager - Umbraco application startup complete (took 20589ms)
 2017-07-31 15:18:23,657 [P4052/D3/T22] INFO  Umbraco.Core.Sync.ApplicationUrlHelper - ApplicationUrl: http://localhost:80/umbraco (UmbracoModule request)
 2017-07-31 15:18:25,866 [P4052/D3/T20] INFO  umbraco.content - Save Xml to file...
 2017-07-31 15:18:25,898 [P4052/D3/T20] INFO  umbraco.content - Saved Xml to file.
 2017-07-31 15:19:34,528 [P4052/D3/T23] INFO  Umbraco.Web.Scheduling.BackgroundTaskRunner - [Umbraco.Web.Scheduling.IBackgroundTask] Terminating
 2017-07-31 15:19:34,528 [P4052/D3/T23] INFO  Umbraco.Web.Scheduling.BackgroundTaskRunner - [Umbraco.Web.Scheduling.IBackgroundTask] Waiting for tasks to complete
 2017-07-31 15:19:34,531 [P4052/D3/T23] INFO  Umbraco.Web.Scheduling.BackgroundTaskRunner - [Umbraco.Web.Scheduling.IBackgroundTask] Tasks completed, terminated
 2017-07-31 15:19:34,548 [P4052/D3/T23] INFO  Umbraco.Web.Scheduling.BackgroundTaskRunner - [ScheduledTasks] Terminating
 2017-07-31 15:19:34,549 [P4052/D3/T23] INFO  Umbraco.Web.Scheduling.BackgroundTaskRunner - [ScheduledTasks] Waiting for tasks to complete
 2017-07-31 15:19:34,549 [P4052/D3/T23] INFO  Umbraco.Web.Scheduling.BackgroundTaskRunner - [ScheduledTasks] Tasks completed, terminated
 2017-07-31 15:19:34,552 [P4052/D3/T23] INFO  Umbraco.Core.MainDom - Stopping...
 2017-07-31 15:19:34,563 [P4052/D3/T23] INFO  Umbraco.Core.MainDom - Released MainDom.
 2017-07-31 15:19:34,563 [P4052/D3/T23] INFO  Umbraco.Web.Scheduling.BackgroundTaskRunner - [ScheduledPublishing] Terminating
 2017-07-31 15:19:34,564 [P4052/D3/T23] INFO  Umbraco.Web.Scheduling.BackgroundTaskRunner - [ScheduledPublishing] Waiting for tasks to complete
 2017-07-31 15:19:34,564 [P4052/D3/T23] INFO  Umbraco.Web.Scheduling.BackgroundTaskRunner - [ScheduledPublishing] Tasks completed, terminated
 2017-07-31 15:19:34,564 [P4052/D3/T23] INFO  Umbraco.Web.Scheduling.BackgroundTaskRunner - [KeepAlive] Terminating
 2017-07-31 15:19:34,564 [P4052/D3/T23] INFO  Umbraco.Web.Scheduling.BackgroundTaskRunner - [KeepAlive] Waiting for tasks to complete
 2017-07-31 15:19:34,565 [P4052/D3/T23] INFO  Umbraco.Web.Scheduling.BackgroundTaskRunner - [KeepAlive] Tasks completed, terminated
 2017-07-31 15:19:34,565 [P4052/D3/T23] INFO  Umbraco.Web.Scheduling.BackgroundTaskRunner - [LogScrubber] Terminating
 2017-07-31 15:19:34,566 [P4052/D3/T23] INFO  Umbraco.Web.Scheduling.BackgroundTaskRunner - [LogScrubber] Waiting for tasks to complete
 2017-07-31 15:19:34,566 [P4052/D3/T23] INFO  Umbraco.Web.Scheduling.BackgroundTaskRunner - [LogScrubber] Tasks completed, terminated
 2017-07-31 15:19:38,195 [P4052/D4/T1] INFO  Umbraco.Core.CoreBootManager - Umbraco 7.6.4 application starting on WIN7-64BIT
 2017-07-31 15:19:38,226 [P4052/D4/T1] INFO  Umbraco.Core.PluginManager - Determining hash of code files on disk
 2017-07-31 15:19:38,234 [P4052/D4/T1] INFO  Umbraco.Core.PluginManager - Hash determined (took 8ms)
 2017-07-31 15:19:38,295 [P4052/D4/T1] INFO  Umbraco.Core.MainDom - Acquiring MainDom...
 2017-07-31 15:19:38,297 [P4052/D4/T1] INFO  Umbraco.Core.MainDom - Acquired MainDom.
 2017-07-31 15:19:38,300 [P4052/D4/T1] INFO  Umbraco.Core.PluginManager - Resolving umbraco.interfaces.IDiscoverable
 2017-07-31 15:19:38,586 [P4052/D4/T1] INFO  Umbraco.Core.PluginManager - Resolved umbraco.interfaces.IDiscoverable (took 286ms)
 2017-07-31 15:19:38,586 [P4052/D4/T1] INFO  Umbraco.Core.PluginManager - Resolving umbraco.interfaces.IApplicationStartupHandler
 2017-07-31 15:19:38,589 [P4052/D4/T1] INFO  Umbraco.Core.PluginManager - Resolved umbraco.interfaces.IApplicationStartupHandler (took 2ms)
 2017-07-31 15:19:38,613 [P4052/D4/T1] INFO  Umbraco.Core.PluginManager - Resolving umbraco.interfaces.IDiscoverable
 2017-07-31 15:19:38,614 [P4052/D4/T1] INFO  Umbraco.Core.PluginManager - Resolved umbraco.interfaces.IDiscoverable (took 1ms)
 2017-07-31 15:19:38,615 [P4052/D4/T1] INFO  Umbraco.Core.PluginManager - Resolving Umbraco.Core.PropertyEditors.IPropertyEditorValueConverter
 2017-07-31 15:19:38,617 [P4052/D4/T1] INFO  Umbraco.Core.PluginManager - Resolved Umbraco.Core.PropertyEditors.IPropertyEditorValueConverter (took 1ms)
 2017-07-31 15:19:38,618 [P4052/D4/T1] INFO  Umbraco.Core.PluginManager - Resolving umbraco.interfaces.IDiscoverable
 2017-07-31 15:19:38,618 [P4052/D4/T1] INFO  Umbraco.Core.PluginManager - Resolved umbraco.interfaces.IDiscoverable (took 0ms)
 2017-07-31 15:19:38,619 [P4052/D4/T1] INFO  Umbraco.Core.PluginManager - Resolving Umbraco.Core.PropertyEditors.IPropertyValueConverter
 2017-07-31 15:19:38,622 [P4052/D4/T1] INFO  Umbraco.Core.PluginManager - Resolved Umbraco.Core.PropertyEditors.IPropertyValueConverter (took 2ms)
 2017-07-31 15:19:38,639 [P4052/D4/T1] INFO  Umbraco.Core.PluginManager - Resolving umbraco.interfaces.IDiscoverable
 2017-07-31 15:19:38,640 [P4052/D4/T1] INFO  Umbraco.Core.PluginManager - Resolved umbraco.interfaces.IDiscoverable (took 0ms)
 2017-07-31 15:19:38,640 [P4052/D4/T1] INFO  Umbraco.Core.PluginManager - Resolving Umbraco.Web.Mvc.SurfaceController
 2017-07-31 15:19:38,642 [P4052/D4/T1] INFO  Umbraco.Core.PluginManager - Resolved Umbraco.Web.Mvc.SurfaceController (took 1ms)
 2017-07-31 15:19:38,643 [P4052/D4/T1] INFO  Umbraco.Core.PluginManager - Resolving umbraco.interfaces.IDiscoverable
 2017-07-31 15:19:38,643 [P4052/D4/T1] INFO  Umbraco.Core.PluginManager - Resolved umbraco.interfaces.IDiscoverable (took 0ms)
 2017-07-31 15:19:38,644 [P4052/D4/T1] INFO  Umbraco.Core.PluginManager - Resolving Umbraco.Web.WebApi.UmbracoApiController
 2017-07-31 15:19:38,646 [P4052/D4/T1] INFO  Umbraco.Core.PluginManager - Resolved Umbraco.Web.WebApi.UmbracoApiController (took 1ms)
 2017-07-31 15:19:43,617 [P4052/D4/T1] INFO  Umbraco.Core.DatabaseContext - CanConnect = True
 2017-07-31 15:19:46,159 [P4052/D4/T1] INFO  Umbraco.Web.Cache.CacheRefresherEventHandler - Initializing Umbraco internal event handlers for cache refreshing
 2017-07-31 15:19:46,734 [P4052/D4/T1] INFO  Umbraco.Web.Search.ExamineEvents - Initializing Examine and binding to business logic events
 2017-07-31 15:19:48,152 [P4052/D4/T1] INFO  Umbraco.Web.Search.ExamineEvents - Adding examine event handlers for index providers: 3
 2017-07-31 15:19:48,874 [P4052/D4/T1] INFO  umbraco.content - Load Xml from file...
 2017-07-31 15:19:48,887 [P4052/D4/T1] INFO  umbraco.content - Loaded Xml from file.
 2017-07-31 15:19:50,284 [P4052/D4/T1] INFO  Umbraco.Core.PluginManager - Resolving umbraco.interfaces.IDiscoverable
 2017-07-31 15:19:50,284 [P4052/D4/T1] INFO  Umbraco.Core.PluginManager - Resolved umbraco.interfaces.IDiscoverable (took 0ms)
 2017-07-31 15:19:50,284 [P4052/D4/T1] INFO  Umbraco.Core.PluginManager - Resolving Umbraco.Core.PropertyEditors.IParameterEditor
 2017-07-31 15:19:50,287 [P4052/D4/T1] INFO  Umbraco.Core.PluginManager - Resolved Umbraco.Core.PropertyEditors.IParameterEditor (took 2ms)
 2017-07-31 15:19:50,769 [P4052/D4/T1] INFO  Articulate.ArticulateRoutes - Mapping routes for 1 Articulate root nodes
 2017-07-31 15:19:50,832 [P4052/D4/T1] INFO  Umbraco.Core.CoreBootManager - Umbraco application startup complete (took 12739ms)
 2017-07-31 15:19:54,247 [P4052/D4/T11] INFO  Umbraco.Core.Sync.ApplicationUrlHelper - ApplicationUrl: http://localhost:80/umbraco (UmbracoModule request)
 2017-07-31 15:20:04,646 [P4052/D3/T32] INFO  Umbraco.Core.UmbracoApplicationBase - Application shutdown. Details: BinDirChangeOrDirectoryRename

_shutDownMessage=Change Notification for critical directories.
bin dir change or directory rename
HostingEnvironment initiated shutdown
Change Notification for critical directories.
bin dir change or directory rename
Change Notification for critical directories.
bin dir change or directory rename
Change in C:\Windows\Microsoft.NET\Framework64\v4.0.30319\Temporary ASP.NET Files\root\2d45fe6b\b8625b42\hash\hash.web
Change in C:\Windows\Microsoft.NET\Framework64\v4.0.30319\Temporary ASP.NET Files\root\2d45fe6b\b8625b42\hash\hash.web
HostingEnvironment caused shutdown

_shutDownStack=   at System.Environment.GetStackTrace(Exception e, Boolean needFileInfo)
   at System.Environment.get_StackTrace()
   at System.Web.Hosting.HostingEnvironment.InitiateShutdownInternal()
   at System.Web.Hosting.HostingEnvironment.InitiateShutdownWithoutDemand()
   at System.Web.HttpRuntime.ShutdownAppDomain(String stackTrace)
   at System.Web.HttpRuntime.OnCriticalDirectoryChange(Object sender, FileChangeEvent e)
   at System.Web.FileChangesMonitor.OnCriticaldirChange(Object sender, FileChangeEvent e)
   at System.Web.DirectoryMonitor.FireNotifications()
   at System.Web.Util.WorkItem.CallCallbackWithAssert(WorkItemCallback callback)
   at System.Web.Util.WorkItem.OnQueueUserWorkItemCompletion(Object state)
   at System.Threading.ExecutionContext.RunInternal(ExecutionContext executionContext, ContextCallback callback, Object state, Boolean preserveSyncCtx)
   at System.Threading.ExecutionContext.Run(ExecutionContext executionContext, ContextCallback callback, Object state, Boolean preserveSyncCtx)
   at System.Threading.QueueUserWorkItemCallback.System.Threading.IThreadPoolWorkItem.ExecuteWorkItem()
   at System.Threading.ThreadPoolWorkQueue.Dispatch()
 2017-07-31 15:21:09,042 [P4052/D4/T33] INFO  umbraco.BusinessLogic.Log - Log scrubbed.  Removed all items older than 2017-07-30 15:21:09
 2017-07-31 15:21:12,301 [P4052/D4/T8] INFO  Umbraco.Core.PluginManager - Resolving umbraco.interfaces.IDiscoverable
 2017-07-31 15:21:12,302 [P4052/D4/T8] INFO  Umbraco.Core.PluginManager - Resolved umbraco.interfaces.IDiscoverable (took 0ms)
 2017-07-31 15:21:12,303 [P4052/D4/T8] INFO  Umbraco.Core.PluginManager - Resolving [Umbraco.Core.Persistence.Mappers.MapperForAttribute]Umbraco.Core.Persistence.Mappers.BaseMapper
 2017-07-31 15:21:12,307 [P4052/D4/T8] INFO  Umbraco.Core.PluginManager - Resolved [Umbraco.Core.Persistence.Mappers.MapperForAttribute]Umbraco.Core.Persistence.Mappers.BaseMapper (took 4ms)
